%!PS-Adobe-3.0
%%Creator: FreeHand 9.0
%%Title: (New Flag 5x8.eps)
%%CreationDate: (5/2/03 5:51 PM)
%%DocumentProcessColors: Black
%%DocumentNeededResources: procset procset Adobe_level2_AI5 1.2 0
%%+ procset Adobe_typography_AI5 1.0 1
%%+ procset Adobe_ColorImage_AI6 1.1 0
%%+ procset Adobe_Illustrator_AI5 1.2 0
%%+ procset Adobe_cshow 2.0 8
%%+ procset Adobe_screens_AI5 1.0 0
%%BoundingBox: 0 0 6912 4320 
%AI3_TemplateBox: 3456 2160 3456 2160 
%AI3_TileBox: 30 31 6882 4289 
%AI3_DocumentPreview: None
%AI3_ColorUsage: Color
%AI7_ImageSettings: 0
%AI5_ArtSize: 6912 4320 
%AI5_ArtFlags: 0 0 0 1 0 0
%AI5_TargetResolution: 300
%AI5_RulerUnits: 2
%AI5_FileFormat 3
%%DocumentProcessColors: Cyan Magenta Yellow Black
%%DocumentCustomColors: (PANTONE 123 CVC)
%%+ (PANTONE 287 CVC)
%%+ (PANTONE 186 CVC)
%%RGBCustomColor: 0.9804 0.7176 0 (PANTONE 123 CVC)
%%+ 0 0.1451 0.4667 (PANTONE 287 CVC)
%%+ 0.7098 0 0.1529 (PANTONE 186 CVC)
%%EndComments
%%BeginProlog
%%IncludeResource: procset procset Adobe_level2_AI5 1.2 0
%%IncludeResource: Adobe_typography_AI5 1.0 1
%%IncludeResource: Adobe_ColorImage_AI6 1.1 0
%%IncludeResource: Adobe_Illustrator_AI5 1.2 0
%%IncludeResource: Adobe_cshow 2.0 8
%%IncludeResource: procset Adobe_screens_AI5 1.0 0
%%EndProlog
%%BeginSetup
Adobe_level2_AI5 /initialize get exec
Adobe_cshow /initialize get exec
Adobe_IllustratorA_AI5_vars Adobe_IllustratorA_AI5 Adobe_typography_AI5 /initialize get exec
Adobe_ColorImage_AI6 /initialize get exec
Adobe_screens_AI5 /initialize get exec
Adobe_IllustratorA_AI5 /initialize get exec
%%EndSetup
[] 0 d
3.863708 M
1 w
0 j
0 J
0 i
0 0 0 1 k
0 0 0 1 K
0 A 0 O 0 R
%AI5_BeginLayer
0 1 1 0 0 0 0 79 128 255 Lb
(Background) Ln
300 Ar
0 XR
u
0 XR
u
0.25 w
3.863693 M
[] 0 d
120 1728.0001 m
120 2138.9053 453.0949 2472.0002 864 2472.0002 c
1274.9052 2472.0002 1608.0001 2138.9053 1608.0001 1728.0001 c
1608.0001 1317.0949 1274.9052 984 864 984 c
453.0949 984 120 1317.0949 120 1728.0001 c
s
864 1728.0001 m
S
U
0 XR
u
[] 0 d
294 1728.0001 m
294 2042.8065 549.1936 2298.0002 864 2298.0002 c
1178.8064 2298.0002 1434.0001 2042.8065 1434.0001 1728.0001 c
1434.0001 1413.1937 1178.8064 1158 864 1158 c
549.1936 1158 294 1413.1937 294 1728.0001 c
s
864 1728.0001 m
S
U
U
1 XR
2 To
1 0 0 1 2808 2808 1.006 Tp
2795.2519 3794.9864 m
2795.2519 3940.7804 2892.0109 4058.9664 3011.3726 4058.9664 c
3130.7343 4058.9664 3227.4932 3940.7804 3227.4932 3794.9864 c
3227.4932 3649.1924 3130.7343 3531.0064 3011.3726 3531.0064 c
2892.0109 3531.0064 2795.2519 3649.1924 2795.2519 3794.9864 c
n
TP
0 0.3059 0.9216 Xa
0 Tr
36 0 Xb
XB
13.8226 Ts
1 TA
0 Tq
160 Tt
-10 0 10 TC
80 100 150 TW
0 0 0 Ti
1 Ta
65.484 0  Tl
7.8583 Tc
0 Tw
/_Charcoal 49.1132 Tf
100 Tz
0 TY 0 TV
(C) TX
0 TY 0 TV
(O) TX
0 TY 0 TV
(N) TX
0 TY 0 TV
(S) TX
0 TY 0 TV
(T) TX
0 TY 0 TV
(I) TX
0 TY 0 TV
(T) TX
0 TY 0 TV
(U) TX
0 TY 0 TV
(T) TX
0 TY 0 TV
(I) TX
0 TY 0 TV
(O) TX
0 TY 0 TV
(N\015) TX
TO
LB
%AI5_EndLayer--
%AI5_BeginLayer
1 1 1 1 0 0 0 79 128 255 Lb
(Guides) Ln
300 Ar
0 XR
LB
%AI5_EndLayer--
%AI5_BeginLayer
1 1 1 1 0 0 0 79 128 255 Lb
(Red) Ln
300 Ar
0 XR
u
1 XR
0.7098 0 0.1529 (PANTONE 186 CVC) 0 1 Xx
0 O
0 1440.0001 m
6911.9997 1440.0001 L
6911.9997 0.0671 l
0.1321 0.0001 l
0 1440.0001 l
f
U
0 XR
u
1 XR
2880.0246 4320 m
6911.9998 4320 L
6911.9998 2880.0001 l
2880.0245 2880.0121 l
2880.0246 4320 l
f
U
LB
%AI5_EndLayer--
%AI5_BeginLayer
1 1 1 1 0 0 0 79 128 255 Lb
(blue) Ln
300 Ar
LB
%AI5_EndLayer--
%AI5_BeginLayer
1 1 1 1 0 0 0 79 128 255 Lb
(Stars) Ln
300 Ar
LB
%AI5_EndLayer--
%AI5_BeginLayer
1 1 1 1 0 0 0 79 128 255 Lb
(In God We Trust) Ln
300 Ar
LB
%AI5_EndLayer--
%AI5_BeginLayer
1 1 1 1 0 0 0 79 128 255 Lb
(Coat of Arms) Ln
300 Ar
LB
%AI5_EndLayer--
%AI5_BeginLayer
1 1 1 1 0 0 0 79 128 255 Lb
(Banner) Ln
300 Ar
LB
%AI5_EndLayer--
%AI5_BeginLayer
1 1 1 1 0 0 0 79 128 255 Lb
(Lettering) Ln
300 Ar
LB
%AI5_EndLayer--
%AI5_BeginLayer
1 1 1 1 0 0 0 79 128 255 Lb
(Soldier) Ln
300 Ar
0 XR
u
0 XR
u
1 XR
0 0.1451 0.4667 (PANTONE 287 CVC) 0 1 Xx
0.0158 1440.0229 m
0.0158 4319.9073 L
2880.0246 4320.0316 L
2880.0246 1440.0229 L
0.0158 1440.0229 L
f
U
1 XR
0 0 0 0 k
1444.3323 4120.326 m
1403.8928 4001.4691 L
1278.337 4003.2714 L
1378.8994 3928.0102 L
1338.4726 3809.1523 L
1441.0621 3881.4991 L
1541.6251 3806.2441 L
1504.4654 3926.213 L
1607.0546 3998.5578 L
1481.4914 4000.3627 L
1444.3323 4120.326 L
f
1 XR
867.6475 3981.86 m
887.069 3857.8289 L
775.0597 3801.0839 L
899.0723 3781.1721 L
918.5055 3657.1465 L
975.7253 3768.8743 L
1099.7355 3748.9684 L
1011.0882 3837.9266 L
1068.3087 3949.6526 L
956.2918 3892.9062 L
867.6475 3981.86 L
f
1 XR
419.827 3588.8251 m
494.6557 3488.0278 L
421.8457 3385.7373 L
540.9034 3425.7305 L
615.74 3324.9435 L
614.489 3450.459 L
733.5416 3490.4562 L
613.7147 3528.0323 L
612.4653 3653.5469 L
539.6489 3551.2517 L
419.827 3588.8251 L
f
1 XR
209.0379 3033.6331 m
322.1304 2979.1535 L
305.1922 2854.7501 L
392.0272 2945.4828 L
505.1222 2891.0158 L
445.6922 3001.5705 L
532.5205 3092.3048 L
408.9613 3069.8971 L
349.5335 3180.4516 L
332.5917 3056.0407 L
209.0379 3033.6331 L
f
1 XR
277.7126 2445.2475 m
403.1635 2449.559 L
445.971 2331.5368 L
480.698 2452.2238 L
606.1451 2456.5474 L
502.1533 2526.8219 L
536.8737 2647.5073 L
437.8818 2570.2535 L
333.8916 2640.5287 L
376.6997 2522.4986 L
277.7126 2445.2475 L
f
1 XR
613.0786 1953.3237 m
722.1541 2015.4333 L
814.8979 1930.823 L
789.5678 2053.8201 L
898.6343 2115.9386 L
773.9021 2129.8414 L
748.5674 2252.8337 L
696.813 2138.4328 L
572.0822 2152.3369 L
664.8297 2067.7201 L
613.0786 1953.3237 L
f
1 XR
1139.4054 1676.3488 m
1207.1252 1782.0263 L
1328.5588 1750.2036 L
1248.9788 1847.3398 L
1316.6864 1953.021 L
1199.7837 1907.3729 L
1120.2017 2004.5029 L
1127.534 1879.1595 L
1010.6321 1833.5135 L
1132.0725 1801.6867 L
1139.4054 1676.3488 L
f
1 XR
1731.5224 1674.2478 m
1742.3797 1799.2851 L
1864.6884 1827.5337 L
1749.09 1876.5638 L
1759.9348 2001.5988 L
1677.6358 1906.8605 L
1562.0385 1955.8841 L
1626.7728 1848.3078 L
1544.4733 1753.5712 L
1666.7898 1781.819 L
1731.5224 1674.2478 L
f
1 XR
2259.644 1947.0595 m
2211.1577 2062.8171 L
2306.3282 2144.6614 L
2181.1907 2134.3605 L
2132.6943 2250.1102 L
2103.845 2127.9841 L
1978.7113 2117.6781 L
2086.0161 2052.5054 L
2057.1655 1930.381 L
2152.3432 2012.2283 L
2259.644 1947.0595 L
f
1 XR
2598.8107 2436.3814 m
2502.091 2516.3476 L
2548.3288 2633.0377 L
2442.3139 2565.7705 L
2345.5889 2645.7251 L
2376.7919 2524.1851 L
2270.7828 2456.915 L
2396.0775 2449.0689 L
2427.2786 2327.5299 L
2473.5214 2444.2259 L
2598.8107 2436.3814 L
f
1 XR
2465.0662 3580.6231 m
2344.3201 3546.4647 L
2274.5682 3650.802 L
2269.6934 3525.3533 L
2148.9539 3491.1841 L
2266.6899 3447.8142 L
2261.821 3322.3684 L
2339.4555 3421.0108 L
2457.1897 3377.6394 L
2387.4358 3481.9844 L
2465.0662 3580.6231 L
f
1 XR
2020.6006 3977.0083 m
1929.5595 3890.6572 L
1819.3172 3950.6304 L
1873.2919 3837.2883 L
1782.2618 3750.9307 L
1906.6619 3767.2366 L
1960.6402 3653.9 L
1983.5459 3777.3152 L
2107.9449 3793.6191 L
1997.6971 3853.5981 L
2020.6006 3977.0083 L
f
0 XR
u
1 XR
2671.6373 3024.2828 m
2548.8409 3050.1462 L
2535.5602 3174.9526 L
2472.9471 3066.1308 L
2350.1515 3091.9815 L
2434.2546 2998.8642 L
2371.6481 2890.0424 L
2486.2343 2941.3148 L
2570.3355 2848.1973 L
2557.0564 2973.0117 L
2671.6373 3024.2828 L
f
U
0 XR
u
1 XR
0.9804 0.7176 0 (PANTONE 123 CVC) 0 1 Xx
0.9804 0.7176 0 (PANTONE 123 CVC) 0 1 XX
0 R
1.6333 w
0 J
0 j
3.863693 M
[] 0 d
0 i
918.6735 2229.9824 m
882.316 2229.9824 L
882.316 2234.0269 L
883.3402 2234.1017 884.8194 2234.2157 886.754 2234.3687 C
888.6884 2234.5201 890.0539 2234.7479 890.8506 2235.0525 C
892.1023 2235.5455 893.0126 2236.2095 893.5816 2237.0463 C
894.1506 2237.9184 894.435 2239.1148 894.435 2240.6351 C
894.435 2299.1965 L
894.435 2300.5245 894.2254 2301.6265 893.8093 2302.5005 C
893.3915 2303.4119 892.4045 2304.1703 890.8506 2304.7791 C
889.7126 2305.2349 888.2706 2305.6514 886.5264 2306.0325 C
884.8194 2306.4489 883.4148 2306.6964 882.316 2306.773 C
882.316 2310.8175 L
918.6735 2310.8175 L
918.6735 2306.773 L
917.4965 2306.7337 916.0936 2306.5824 914.4632 2306.3172 C
912.8309 2306.0894 911.4085 2305.785 910.1957 2305.4058 C
908.7538 2304.95 907.7864 2304.2095 907.294 2303.1841 C
906.7996 2302.1587 906.5542 2301.0195 906.5542 2299.7661 C
906.5542 2241.2617 L
906.5542 2240.0084 906.8193 2238.8869 907.3509 2237.9007 C
907.9199 2236.9502 908.8676 2236.1917 910.1957 2235.6221 c
910.9924 2235.3177 912.2815 2234.9759 914.0648 2234.5967 c
915.8856 2234.2549 917.4219 2234.0643 918.6735 2234.0269 C
918.6735 2229.9824 L
b
1 XR
[] 0 d
1018.2922 2306.773 m
1017.2291 2306.7337 1015.5986 2306.431 1013.3992 2305.8616 c
1011.1979 2305.2919 1009.6243 2304.7026 1008.6767 2304.0955 C
1007.3112 2303.1449 1006.3812 2301.3221 1005.8888 2298.6267 C
1005.4335 2295.9299 1005.2059 2292.5119 1005.2059 2288.3728 C
1005.2059 2229.1848 L
1000.2557 2229.1848 L
951.3239 2295.3227 L
951.3239 2253.6234 L
951.3239 2248.9522 951.6084 2245.3633 952.1774 2242.8568 C
952.7836 2240.3503 953.6939 2238.5647 954.9084 2237.502 C
955.7797 2236.6653 957.5808 2235.8873 960.3137 2235.1663 C
963.0447 2234.4435 964.8459 2234.0643 965.7188 2234.0269 C
965.7188 2229.9824 L
932.6046 2229.9824 L
932.6046 2234.0269 L
933.6286 2234.1017 935.3534 2234.4632 937.7822 2235.1094 c
940.2093 2235.793 941.726 2236.4 942.334 2236.9324 C
943.6603 2237.995 944.5708 2239.6078 945.0651 2241.7744 c
945.5576 2243.9764 945.803 2247.7167 945.8048 2252.9967 C
945.8048 2292.8162 L
945.8048 2294.5625 945.5009 2296.3091 944.8945 2298.0571 c
944.2863 2299.8035 943.4719 2301.1512 942.4477 2302.1016 C
941.0824 2303.355 939.2225 2304.4178 936.8717 2305.2919 c
934.5568 2306.2034 932.6792 2306.6964 931.2389 2306.773 C
931.2389 2310.8175 L
954.2825 2310.8175 L
999.6868 2249.18 L
999.6868 2287.6324 L
999.6868 2292.341 999.3827 2295.9476 998.7765 2298.4558 c
998.1684 2300.9998 997.2971 2302.6891 996.1591 2303.5259 C
995.0959 2304.2469 993.3517 2304.9483 990.9246 2305.6337 c
988.5349 2306.3172 986.7142 2306.6964 985.4625 2306.773 C
985.4625 2310.8175 L
1018.2922 2310.8175 L
1018.2922 2306.773 L
b
1 XR
[] 0 d
1137.3685 2262.2822 m
1136.458 2262.1683 1135.2242 2261.9778 1133.6701 2261.7126 C
1132.1517 2261.4846 1130.9195 2261.1428 1129.9718 2260.6872 C
1128.8338 2260.1176 1128.0176 2259.3004 1127.5252 2258.2377 C
1127.0699 2257.2123 1126.8424 2255.9963 1126.8424 2254.5919 C
1126.8424 2248.3255 L
1126.8424 2243.7682 1126.8601 2240.6921 1126.8993 2239.097 c
1126.974 2237.502 1127.0503 2236.1917 1127.1269 2235.1663 C
1122.0807 2232.8877 1117.056 2231.1395 1112.0491 2229.9253 c
1107.042 2228.7113 1102.1293 2228.1044 1097.3125 2228.1025 C
1092.1526 2228.1025 1087.1848 2229.0708 1082.4054 2231.0078 c
1077.6259 2232.9448 1073.4528 2235.6969 1069.8878 2239.2679 c
1066.2837 2242.8745 1063.4193 2247.2609 1061.2962 2252.4271 C
1059.1716 2257.5914 1058.1102 2263.3628 1058.1102 2269.7448 c
1058.1102 2275.8973 1059.1145 2281.5939 1061.1256 2286.8349 c
1063.174 2292.1132 1066.056 2296.6882 1069.774 2300.5637 c
1073.3765 2304.3608 1077.6633 2307.3034 1082.6329 2309.3934 c
1087.64 2311.5189 1092.9882 2312.5817 1098.6781 2312.5835 c
1103.2299 2312.5835 1107.1931 2312.0316 1110.5696 2310.9315 C
1113.9444 2309.8296 1116.9226 2308.4998 1119.5025 2306.9439 C
1121.8353 2310.8175 L
1126.3872 2310.8175 L
1126.8993 2282.5624 L
1122.2336 2282.5624 L
1121.4371 2285.6759 1120.4503 2288.7324 1119.275 2291.734 c
1118.098 2294.7708 1116.5813 2297.4857 1114.7232 2299.8801 c
1112.8633 2302.2725 1110.5874 2304.1703 1107.8955 2305.5767 C
1105.2391 2307.0186 1102.0529 2307.7396 1098.3366 2307.7413 c
1094.2774 2307.7413 1090.6554 2306.9046 1087.4692 2305.2349 C
1084.2829 2303.6006 1081.5126 2301.1512 1079.1622 2297.8862 c
1076.8471 2294.7334 1075.0655 2290.8029 1073.8138 2286.0942 C
1072.5621 2281.3838 1071.9362 2276.1251 1071.9362 2270.3146 c
1071.9362 2265.1875 1072.5426 2260.3455 1073.7569 2255.7882 C
1075.0087 2251.2682 1076.8099 2247.357 1079.1622 2244.053 c
1081.5126 2240.6725 1084.4519 2238.0145 1087.9812 2236.0779 C
1091.5089 2234.1409 1095.5096 2233.1724 1099.9868 2233.1724 c
1103.3241 2233.1724 1106.3574 2233.6851 1109.0904 2234.7105 C
1111.8588 2235.7361 1113.811 2236.8184 1114.9507 2237.9576 C
1115.253 2239.9319 1115.4042 2241.9258 1115.4059 2243.9391 c
1115.4433 2245.9508 1115.461 2247.6596 1115.4629 2249.066 C
1115.4629 2253.5094 L
1115.4629 2255.1046 1115.2351 2256.509 1114.7801 2257.725 C
1114.3622 2258.9782 1113.4715 2259.8897 1112.106 2260.4594 C
1110.8542 2261.029 1109.1471 2261.4455 1106.9851 2261.7126 c
1104.8603 2262.0151 1103.1907 2262.2057 1101.9781 2262.2822 C
1101.9781 2266.4407 L
1137.3685 2266.4407 L
1137.3685 2262.2822 L
b
1 XR
*u
1 XR
[] 0 d
1216.7584 2301.2473 m
1220.3233 2297.5247 1223.1114 2293.0244 1225.1224 2287.7463 C
1227.1315 2282.5055 1228.1362 2276.6949 1228.138 2270.3146 c
1228.138 2263.8952 1227.1138 2258.0668 1225.0655 2252.8258 c
1223.0173 2247.5849 1220.1723 2243.1219 1216.5307 2239.4388 c
1213.0032 2235.793 1208.9065 2232.9821 1204.241 2231.0078 c
1199.5754 2229.0335 1194.6056 2228.0474 1189.3338 2228.0456 c
1183.7186 2228.0456 1178.5233 2229.0905 1173.7437 2231.1787 c
1169.0018 2233.3041 1164.9246 2236.2469 1161.5109 2240.0084 c
1158.097 2243.6917 1155.4032 2248.1528 1153.4313 2253.3956 c
1151.4968 2258.6738 1150.5296 2264.3134 1150.5296 2270.3146 c
1150.5296 2276.8835 1151.5537 2282.7314 1153.6021 2287.8602 c
1155.6504 2293.0244 1158.4758 2297.4857 1162.0799 2301.2473 c
1165.6448 2304.9678 1169.7787 2307.8161 1174.4835 2309.7922 c
1179.2238 2311.7664 1184.1739 2312.7526 1189.3338 2312.7544 c
1194.6821 2312.7544 1199.7265 2311.7467 1204.4685 2309.7352 c
1209.2089 2307.7218 1213.3055 2304.8931 1216.7584 2301.2473 c
b
1 XR
[] 0 d
1208.2806 2243.9391 m
1210.4037 2247.3944 1211.9398 2251.3056 1212.8894 2255.6742 c
1213.8745 2260.0411 1214.3669 2264.9206 1214.3687 2270.3146 c
1214.3687 2275.8581 1213.8176 2280.9477 1212.7186 2285.5815 C
1211.6554 2290.2136 1210.0819 2294.1638 1207.9962 2297.4304 C
1205.9088 2300.658 1203.2914 2303.1644 1200.1444 2304.95 C
1196.9955 2306.773 1193.3913 2307.6844 1189.3338 2307.6844 c
1184.782 2307.6844 1180.913 2306.6393 1177.7266 2304.5513 c
1174.5404 2302.4613 1171.9409 2299.67 1169.9316 2296.1772 c
1168.0345 2292.834 1166.6119 2288.9229 1165.6644 2284.4421 C
1164.754 2279.9597 1164.2988 2275.2511 1164.2988 2270.3146 c
1164.2988 2264.8458 1164.7912 2259.9074 1165.778 2255.5033 C
1166.7631 2251.0973 1168.3189 2247.1861 1170.4437 2243.7682 c
1172.4921 2240.4251 1175.0702 2237.8046 1178.1818 2235.907 C
1181.2917 2234.0448 1185.0078 2233.1155 1189.3338 2233.1155 c
1193.3913 2233.1155 1197.0522 2234.0643 1200.315 2235.9639 c
1203.576 2237.8615 1206.2306 2240.5194 1208.2806 2243.9391 C
b
*U
1 XR
*u
1 XR
[] 0 d
1317.5775 2269.9157 m
1317.5775 2263.0405 1316.2866 2257.0788 1313.7085 2252.0282 c
1311.1285 2246.976 1307.7716 2242.8371 1303.6375 2239.6097 c
1299.4645 2236.3804 1294.7793 2233.97 1289.5838 2232.375 c
1284.3866 2230.78 1279.0186 2229.9824 1273.4819 2229.9824 C
1240.026 2229.9824 L
1240.026 2234.0269 L
1241.1248 2234.0269 1242.5472 2234.1214 1244.2933 2234.3118 C
1246.0749 2234.5396 1247.2503 2234.7853 1247.821 2235.0525 C
1248.959 2235.5455 1249.7733 2236.2665 1250.2676 2237.2172 C
1250.7975 2238.2033 1251.0624 2239.38 1251.0641 2240.7491 C
1251.0641 2299.0825 L
1251.0641 2300.3733 1250.8366 2301.5303 1250.3814 2302.5574 C
1249.9636 2303.5828 1249.11 2304.3982 1247.821 2305.007 C
1246.6439 2305.5767 1245.3744 2305.9932 1244.0089 2306.2601 c
1242.6433 2306.5255 1241.4663 2306.6964 1240.4812 2306.773 C
1240.4812 2310.8175 L
1275.7578 2310.8175 L
1280.6118 2310.8175 1285.3911 2310.0574 1290.096 2308.5389 C
1294.7988 2307.0577 1298.8955 2305.0444 1302.3858 2302.5005 C
1307.1263 2299.1199 1310.8441 2294.696 1313.5379 2289.2273 C
1316.2297 2283.7585 1317.5757 2277.3214 1317.5775 2269.9157 c
b
1 XR
[] 0 d
1303.6375 2269.9728 m
1303.6375 2275.4023 1302.9156 2280.3015 1301.4755 2284.6701 c
1300.0335 2289.0742 1297.9282 2292.9105 1295.1598 2296.1772 C
1292.5425 2299.2908 1289.3172 2301.7403 1285.4873 2303.5259 C
1281.693 2305.3096 1277.4648 2306.2015 1272.7989 2306.2034 c
1271.2433 2306.2034 1269.4795 2306.1641 1267.5076 2306.0894 C
1265.573 2306.0503 1264.131 2306.0129 1263.1834 2305.9755 C
1263.1834 2243.8252 L
1263.1834 2240.368 1264.1879 2237.9754 1266.199 2236.6475 C
1268.208 2235.3177 1271.3002 2234.6536 1275.4733 2234.6536 c
1280.2901 2234.6536 1284.5005 2235.5081 1288.1046 2237.2172 c
1291.7069 2238.9261 1294.6282 2241.2991 1296.8667 2244.3379 C
1299.2173 2247.5279 1300.9243 2251.2113 1301.9875 2255.3895 c
1303.0863 2259.6048 1303.6358 2264.4648 1303.6375 2269.9728 c
b
*U
1 XR
[] 0 d
1471.7593 2306.773 m
1470.8099 2306.7337 1469.7111 2306.5058 1468.4595 2306.0894 C
1467.2078 2305.7085 1466.0502 2305.1958 1464.9885 2304.5513 c
1463.6604 2303.7146 1462.5793 2302.7462 1461.7454 2301.646 C
1460.9489 2300.5815 1460.2466 2299.0825 1459.6403 2297.1456 c
1456.9465 2288.3728 1453.8172 2278.119 1450.2522 2266.3837 c
1446.6854 2254.6862 1442.8359 2242.2107 1438.7018 2228.957 C
1433.4673 2228.957 L
1413.098 2291.1642 L
1391.8752 2228.957 L
1386.8682 2228.957 L
1383.1128 2242.2479 1379.2244 2256.0337 1375.2042 2270.3146 c
1371.1823 2284.6309 1368.4901 2294.2207 1367.1246 2299.0825 C
1366.7833 2300.2593 1366.2712 2301.3025 1365.5885 2302.2156 C
1364.9429 2303.127 1364.0521 2303.962 1362.9141 2304.7222 C
1361.9647 2305.3667 1360.8464 2305.842 1359.5573 2306.1464 C
1358.3055 2306.4881 1357.1676 2306.6964 1356.1434 2306.773 C
1356.1434 2310.8175 L
1389.0871 2310.8175 L
1389.0871 2306.773 L
1386.203 2306.6198 1383.7387 2306.3349 1381.6904 2305.9185 C
1379.6794 2305.5002 1378.6749 2304.7969 1378.6749 2303.8108 C
1378.6749 2303.4297 1378.7317 2302.9171 1378.8455 2302.2725 C
1378.9594 2301.6637 1379.0537 2301.1707 1379.13 2300.7915 C
1380.0012 2297.4483 1381.5375 2291.9226 1383.7387 2284.2143 c
1385.9755 2276.5417 1389.2757 2265.0346 1393.639 2249.6927 C
1413.7806 2309.6782 L
1419.3567 2309.6782 L
1439.6691 2248.3824 L
1442.4003 2257.7997 1444.7507 2266.0224 1446.7245 2273.049 c
1448.6964 2280.1127 1450.3268 2286.1513 1451.6177 2291.1642 c
1452.528 2294.696 1453.097 2297.1065 1453.3245 2298.3989 c
1453.5522 2299.7269 1453.666 2300.8467 1453.666 2301.7598 c
1453.666 2303.0506 1452.7734 2304.1329 1450.9918 2305.007 C
1449.2458 2305.8794 1446.401 2306.4684 1442.4572 2306.773 C
1442.4572 2310.8175 L
1471.7593 2310.8175 L
1471.7593 2306.773 L
b
1 XR
[] 0 d
1550.1554 2253.7943 m
1548.6192 2229.9824 L
1481.5938 2229.9824 L
1481.5938 2234.0269 L
1482.7318 2234.1017 1484.2484 2234.2531 1486.1457 2234.4827 c
1488.041 2234.7479 1489.2731 2235.0132 1489.8439 2235.2803 C
1491.0566 2235.8499 1491.8905 2236.5906 1492.3475 2237.502 C
1492.84 2238.4134 1493.0854 2239.5704 1493.0872 2240.9769 C
1493.0872 2299.0825 L
1493.0872 2300.3359 1492.8773 2301.436 1492.4612 2302.3865 C
1492.0434 2303.3728 1491.1704 2304.1703 1489.8439 2304.7791 C
1488.8198 2305.2723 1487.4347 2305.7085 1485.6905 2306.0894 C
1483.9835 2306.4684 1482.618 2306.6964 1481.5938 2306.773 C
1481.5938 2310.8175 L
1544.0674 2310.8175 L
1544.0674 2291.3351 L
1539.8 2291.3351 L
1539.0407 2294.2207 1537.3908 2297.2774 1534.85 2300.5068 C
1532.3465 2303.7715 1529.9568 2305.5571 1527.681 2305.8616 C
1526.5039 2306.0129 1525.101 2306.1268 1523.4705 2306.2034 c
1521.8382 2306.278 1519.9801 2306.3154 1517.8944 2306.3172 C
1505.2064 2306.3172 L
1505.2064 2274.1883 L
1514.31 2274.1883 L
1517.2296 2274.1883 1519.3542 2274.4535 1520.6825 2274.9857 C
1522.048 2275.5555 1523.243 2276.4848 1524.2671 2277.7772 C
1525.101 2278.8772 1525.8014 2280.3389 1526.3722 2282.1637 C
1526.9785 2284.0239 1527.3769 2285.7702 1527.567 2287.4045 C
1531.8344 2287.4045 L
1531.8344 2255.7882 L
1527.567 2255.7882 L
1527.4143 2257.611 1526.9982 2259.5282 1526.3153 2261.5417 C
1525.67 2263.5924 1524.987 2265.0736 1524.2671 2265.985 C
1523.0901 2267.4664 1521.7439 2268.4348 1520.2274 2268.8905 C
1518.7478 2269.3462 1516.7743 2269.5741 1514.31 2269.5741 C
1505.2064 2269.5741 L
1505.2064 2245.3064 L
1505.2064 2242.8745 1505.3772 2240.9573 1505.7183 2239.5527 C
1506.0598 2238.1463 1506.723 2237.0837 1507.7098 2236.3626 C
1508.6949 2235.6399 1510.0409 2235.1663 1511.7495 2234.9385 C
1513.4565 2234.7479 1515.8835 2234.6536 1519.0324 2234.6536 c
1520.2843 2234.6536 1521.9342 2234.6536 1523.9827 2234.6536 c
1526.0309 2234.6536 1527.7556 2234.7284 1529.1602 2234.8814 C
1530.6005 2235.0328 1532.0798 2235.2981 1533.5982 2235.679 C
1535.1523 2236.0956 1536.2529 2236.6456 1536.8984 2237.3311 C
1538.6426 2239.1539 1540.4635 2241.9063 1542.3604 2245.5911 c
1544.2951 2249.3117 1545.5273 2252.0461 1546.0589 2253.7943 C
1550.1554 2253.7943 L
b
1 XR
[] 0 d
1668.9079 2288.8855 m
1664.982 2288.8855 L
1664.6406 2290.2528 1664.0147 2291.8657 1663.1044 2293.7277 C
1662.2313 2295.6255 1661.2445 2297.4109 1660.1457 2299.0825 C
1659.0077 2300.8289 1657.756 2302.3473 1656.3905 2303.6399 C
1655.0622 2304.9678 1653.7731 2305.728 1652.5215 2305.9185 C
1651.3444 2306.0698 1649.8649 2306.1838 1648.0834 2306.2601 c
1646.3001 2306.3349 1644.65 2306.3723 1643.1333 2306.3741 C
1639.8331 2306.3741 L
1639.8331 2241.7175 L
1639.8331 2240.4642 1640.0982 2239.3053 1640.6298 2238.2425 C
1641.1597 2237.2172 1642.0896 2236.4197 1643.4177 2235.8499 C
1644.1006 2235.5829 1645.523 2235.2234 1647.6852 2234.7676 C
1649.8846 2234.3118 1651.5914 2234.0643 1652.8059 2234.0269 C
1652.8059 2229.9824 L
1614.6844 2229.9824 L
1614.6844 2234.0269 L
1615.746 2234.1017 1617.3569 2234.2531 1619.5207 2234.4827 c
1621.7203 2234.7105 1623.237 2234.9954 1624.0726 2235.3372 C
1625.3243 2235.8304 1626.2348 2236.5318 1626.8038 2237.4451 C
1627.4101 2238.3938 1627.7123 2239.647 1627.7141 2241.2048 C
1627.7141 2306.3741 L
1624.4141 2306.3741 L
1623.237 2306.3741 1621.777 2306.3349 1620.033 2306.2601 C
1618.2869 2306.2212 1616.6191 2306.1072 1615.0259 2305.9185 C
1613.7742 2305.7654 1612.4655 2305.007 1611.0998 2303.6399 c
1609.7717 2302.3099 1608.5394 2300.7915 1607.4015 2299.0825 c
1606.2635 2297.3735 1605.2572 2295.5507 1604.3861 2293.6137 C
1603.513 2291.7143 1602.9066 2290.1389 1602.5654 2288.8855 C
1598.5825 2288.8855 L
1598.5825 2310.8175 L
1668.9079 2310.8175 L
1668.9079 2288.8855 L
b
1 XR
*u
1 XR
[] 0 d
1760.6749 2229.9824 m
1738.94 2229.9824 L
1734.1216 2237.5394 1729.76 2244.0709 1725.8536 2249.5787 c
1721.9846 2255.085 1717.774 2260.7619 1713.2222 2266.6116 C
1704.972 2266.6116 L
1704.972 2240.9769 L
1704.972 2239.647 1705.1802 2238.4703 1705.5981 2237.4451 c
1706.0141 2236.457 1706.9049 2235.6969 1708.2722 2235.1663 C
1708.9549 2234.8993 1710.1498 2234.6536 1711.8568 2234.4258 C
1713.5637 2234.1978 1715.0039 2234.0643 1716.181 2234.0269 C
1716.181 2229.9824 L
1682.0424 2229.9824 L
1682.0424 2234.0269 L
1682.9528 2234.1017 1684.2614 2234.2352 1685.9684 2234.4258 C
1687.7126 2234.6144 1688.9252 2234.8619 1689.6099 2235.1663 C
1690.7477 2235.6595 1691.5621 2236.3804 1692.0563 2237.3311 C
1692.5861 2238.2799 1692.8512 2239.494 1692.853 2240.9769 C
1692.853 2299.4243 L
1692.853 2300.7524 1692.6627 2301.929 1692.284 2302.9561 C
1691.9034 2303.9817 1691.0128 2304.7596 1689.6099 2305.2919 C
1688.6603 2305.6337 1687.4282 2305.9363 1685.9115 2306.2034 c
1684.393 2306.5058 1683.1038 2306.6964 1682.0424 2306.773 C
1682.0424 2310.8175 L
1719.3104 2310.8175 L
1722.7243 2310.8175 1725.9284 2310.4563 1728.9261 2309.7352 C
1731.9222 2309.0516 1734.6335 2307.93 1737.0624 2306.3741 C
1739.413 2304.8539 1741.2906 2302.86 1742.6952 2300.3928 C
1744.0981 2297.961 1744.7988 2295.0183 1744.8005 2291.563 c
1744.8005 2288.4476 1744.3256 2285.6955 1743.3781 2283.3029 c
1742.4286 2280.9103 1741.0258 2278.8398 1739.1677 2277.0936 C
1737.4607 2275.4594 1735.4123 2274.0353 1733.0226 2272.8211 C
1730.633 2271.6425 1727.9961 2270.6368 1725.114 2269.8019 C
1729.0968 2264.5217 1732.3967 2260.0785 1735.0141 2256.4716 C
1737.6687 2252.8632 1740.9118 2248.4769 1744.7437 2243.3124 c
1746.4115 2241.0339 1747.9102 2239.3426 1749.2385 2238.2425 C
1750.604 2237.178 1751.95 2236.3057 1753.2783 2235.6221 C
1754.2632 2235.1272 1755.4954 2234.7479 1756.9767 2234.4827 C
1758.4559 2234.2157 1759.6881 2234.0643 1760.6749 2234.0269 C
1760.6749 2229.9824 L
b
1 XR
[] 0 d
1730.7468 2290.2528 m
1730.7468 2295.1518 1729.3422 2299.0256 1726.5364 2301.8738 C
1723.7288 2304.7596 1719.7655 2306.2015 1714.6447 2306.2034 C
1704.972 2306.2034 L
1704.972 2271.5109 L
1712.4258 2271.5109 L
1717.6604 2271.5109 1722.0218 2273.1808 1725.5123 2276.5238 c
1729.0007 2279.9026 1730.7451 2284.4795 1730.7468 2290.2528 c
b
*U
1 XR
[] 0 d
1845.111 2306.773 m
1844.0478 2306.7337 1842.4938 2306.5058 1840.4455 2306.0894 C
1838.3973 2305.6711 1836.7275 2305.0444 1835.4384 2304.2095 C
1834.1475 2303.3353 1833.2569 2301.5322 1832.7643 2298.7976 C
1832.2699 2296.0634 1832.0246 2292.72 1832.0246 2288.7717 C
1832.0246 2253.6234 L
1832.0246 2249.1408 1831.0947 2245.2493 1829.2366 2241.9453 c
1827.3769 2238.6412 1824.9301 2235.9247 1821.8968 2233.7991 c
1818.8989 2231.7485 1815.7323 2230.285 1812.395 2229.4126 c
1809.0948 2228.5014 1805.9265 2228.0456 1802.893 2228.0456 c
1798.037 2228.0456 1793.713 2228.6917 1789.9204 2229.9824 c
1786.126 2231.2356 1782.9398 2232.9448 1780.3615 2235.1094 C
1777.8191 2237.2742 1775.9039 2239.7413 1774.6149 2242.515 C
1773.324 2245.3241 1772.6804 2248.2489 1772.6804 2251.2879 C
1772.6804 2299.0825 L
1772.6804 2300.4106 1772.4529 2301.5125 1771.9977 2302.3865 C
1771.5797 2303.2979 1770.7068 2304.1329 1769.3803 2304.8931 C
1768.4309 2305.4236 1767.2182 2305.842 1765.7388 2306.1464 C
1764.2595 2306.4881 1763.0452 2306.6964 1762.0973 2306.773 C
1762.0973 2310.8175 L
1795.724 2310.8175 L
1795.724 2306.773 L
1794.6606 2306.7337 1793.3147 2306.5629 1791.6842 2306.2601 C
1790.0912 2305.9559 1788.9139 2305.6711 1788.1565 2305.4058 C
1786.8656 2304.95 1785.9943 2304.1899 1785.5393 2303.127 C
1785.1214 2302.0626 1784.9134 2300.9055 1784.9134 2299.6521 C
1784.9134 2254.9906 L
1784.9134 2252.8258 1785.1409 2250.5472 1785.5961 2248.1546 c
1786.0888 2245.7994 1787.0363 2243.5973 1788.4409 2241.5466 C
1789.9204 2239.4566 1791.9295 2237.7475 1794.4723 2236.4197 C
1797.013 2235.0899 1800.5015 2234.4258 1804.9413 2234.4258 c
1809.1125 2234.4258 1812.603 2235.0899 1815.4104 2236.4197 c
1818.2553 2237.7475 1820.4921 2239.494 1822.1243 2241.6605 C
1823.6784 2243.7112 1824.7791 2245.8565 1825.4245 2248.0975 c
1826.0681 2250.3372 1826.3901 2252.5962 1826.3918 2254.8766 C
1826.3918 2288.031 L
1826.3918 2292.2467 1826.0877 2295.6824 1825.4813 2298.3418 c
1824.8732 2301.0372 1823.9825 2302.8031 1822.8072 2303.6399 C
1821.4789 2304.5887 1819.6582 2305.3293 1817.3451 2305.8616 C
1815.0691 2306.392 1813.323 2306.6964 1812.1104 2306.773 C
1812.1104 2310.8175 L
1845.111 2310.8175 L
1845.111 2306.773 L
b
1 XR
[] 0 d
1904.9905 2267.0675 m
1906.6975 2265.1679 1907.9492 2263.0797 1908.7458 2260.801 C
1909.5797 2258.5599 1909.9957 2255.9395 1909.9975 2252.9398 c
1909.9975 2245.7994 1907.3606 2239.9122 1902.0886 2235.2803 c
1896.815 2230.6465 1890.2717 2228.3322 1882.4591 2228.3305 c
1878.855 2228.3305 1875.2509 2228.8822 1871.6486 2229.9824 c
1868.0444 2231.1218 1864.9345 2232.489 1862.3172 2234.084 C
1859.8707 2229.9253 L
1855.3189 2229.9253 L
1854.5222 2257.611 L
1859.131 2257.611 L
1860.0787 2254.193 1861.1775 2251.0973 1862.4312 2248.3255 c
1863.7201 2245.5911 1865.4074 2243.0276 1867.4949 2240.6351 c
1869.4668 2238.3938 1871.7604 2236.6083 1874.3794 2235.2803 C
1877.0342 2233.9505 1880.1067 2233.2864 1883.597 2233.2864 c
1886.2142 2233.2864 1888.4902 2233.6282 1890.4246 2234.3118 c
1892.3965 2234.9954 1893.9896 2235.9639 1895.2041 2237.2172 C
1896.4167 2238.4703 1897.3075 2239.9319 1897.8783 2241.6035 C
1898.4846 2243.3124 1898.7868 2245.2672 1898.7887 2247.471 c
1898.7887 2250.6986 1897.8783 2253.6982 1896.0577 2256.4716 c
1894.2368 2259.2809 1891.5235 2261.4081 1887.9212 2262.8519 C
1885.4549 2263.8381 1882.6296 2264.9206 1879.4435 2266.0989 C
1876.2572 2267.3132 1873.5065 2268.4525 1871.1934 2269.5171 c
1866.6415 2271.5678 1863.0943 2274.2452 1860.5534 2277.5494 C
1858.0499 2280.8908 1856.7982 2285.238 1856.7982 2290.5946 c
1856.7982 2293.6707 1857.4241 2296.5369 1858.6758 2299.1965 c
1859.9275 2301.8543 1861.7091 2304.2273 1864.0242 2306.3172 c
1866.2237 2308.2914 1868.8212 2309.8296 1871.8192 2310.9315 c
1874.8151 2312.0708 1877.9445 2312.6404 1881.2072 2312.6404 c
1884.9234 2312.6404 1888.243 2312.0708 1891.1643 2310.9315 C
1894.123 2309.7922 1896.815 2308.4624 1899.2437 2306.9439 C
1901.5766 2310.8175 L
1906.1285 2310.8175 L
1906.5837 2283.9865 L
1901.9749 2283.9865 L
1901.1393 2287.0627 1900.1916 2290.0053 1899.13 2292.8162 C
1898.1059 2295.6255 1896.7582 2298.1693 1895.0904 2300.4497 C
1893.458 2302.6517 1891.4666 2304.3982 1889.1161 2305.6907 C
1886.7637 2307.0186 1883.8816 2307.6825 1880.4677 2307.6844 c
1876.8636 2307.6844 1873.7909 2306.5255 1871.2502 2304.2095 c
1868.7076 2301.8917 1867.438 2299.063 1867.438 2295.7216 c
1867.438 2292.227 1868.2524 2289.3217 1869.8846 2287.0058 C
1871.515 2284.727 1873.8853 2282.8473 1876.9968 2281.3661 C
1879.7652 2280.0363 1882.4768 2278.8772 1885.1333 2277.8912 c
1887.8251 2276.9406 1890.4229 2275.915 1892.9282 2274.8148 c
1895.2041 2273.827 1897.384 2272.7072 1899.4715 2271.4539 C
1901.5945 2270.2006 1903.4347 2268.7374 1904.9905 2267.0675 C
b
1 XR
[] 0 d
1992.3765 2288.8855 m
1988.4504 2288.8855 L
1988.109 2290.2528 1987.4831 2291.8657 1986.5729 2293.7277 C
1985.6998 2295.6255 1984.7129 2297.4109 1983.6141 2299.0825 C
1982.4761 2300.8289 1981.2244 2302.3473 1979.8589 2303.6399 C
1978.5307 2304.9678 1977.2415 2305.728 1975.9899 2305.9185 C
1974.8128 2306.0698 1973.3333 2306.1838 1971.5518 2306.2601 c
1969.7685 2306.3349 1968.1184 2306.3723 1966.6017 2306.3741 C
1963.3017 2306.3741 L
1963.3017 2241.7175 L
1963.3017 2240.4642 1963.5666 2239.3053 1964.0983 2238.2425 C
1964.6281 2237.2172 1965.558 2236.4197 1966.8861 2235.8499 C
1967.569 2235.5829 1968.9914 2235.2234 1971.1536 2234.7676 C
1973.353 2234.3118 1975.0598 2234.0643 1976.2743 2234.0269 C
1976.2743 2229.9824 L
1938.1528 2229.9824 L
1938.1528 2234.0269 L
1939.2144 2234.1017 1940.8253 2234.2531 1942.9891 2234.4827 c
1945.1887 2234.7105 1946.7054 2234.9954 1947.541 2235.3372 C
1948.7926 2235.8304 1949.7031 2236.5318 1950.2722 2237.4451 C
1950.8785 2238.3938 1951.1807 2239.647 1951.1825 2241.2048 C
1951.1825 2306.3741 L
1947.8825 2306.3741 L
1946.7054 2306.3741 1945.2454 2306.3349 1943.5013 2306.2601 C
1941.7553 2306.2212 1940.0875 2306.1072 1938.4943 2305.9185 C
1937.2426 2305.7654 1935.9339 2305.007 1934.5684 2303.6399 c
1933.2402 2302.3099 1932.0081 2300.7915 1930.8701 2299.0825 c
1929.7321 2297.3735 1928.7256 2295.5507 1927.8545 2293.6137 C
1926.9814 2291.7143 1926.3751 2290.1389 1926.0338 2288.8855 C
1922.0509 2288.8855 L
1922.0509 2310.8175 L
1992.3765 2310.8175 L
1992.3765 2288.8855 L
b
U
0 XR
u
0 XR
u
0 XR
u
0 XR
0 0.1451 0.4667 (PANTONE 287 CVC) 0 1 XX
0 w
1 j
[] 0 d
1442.886 3253.8118 m
1443.0501 3253.8777 1443.1432 3253.9064 1443.1493 3253.9041 C
1443.2139 3253.929 1453.1904 3250.3347 1453.2758 3234.7072 C
1462.1048 3236.3608 1465.6686 3231.6984 1463.9671 3220.7206 C
1463.9671 3220.7206 1453.485 3223.5549 1451.7744 3217.5774 C
1449.2045 3210.6678 1451.1642 3205.038 1457.653 3200.689 C
1457.653 3200.689 1468.5533 3192.0514 1475.4118 3208.4241 c
1482.2704 3224.7971 1484.7394 3230.3665 1484.7394 3230.3665 C
1486.6469 3236.3983 1498.0038 3250.5345 1508.3171 3252.515 C
1512.2461 3254.0903 1516.0072 3253.7789 1520.2031 3252.7765 C
1520.2031 3252.7765 1529.227 3250.8232 1529.4835 3243.2829 c
1529.7402 3235.7426 1526.6611 3232.4611 1521.572 3230.2731 c
1515.946 3227.8544 1508.9987 3233.0465 1508.9987 3233.0465 C
1506.5766 3233.4993 1505.803 3232.6614 1504.3157 3231.6299 c
1503.6308 3231.1548 1500.7752 3228.0201 1499.1201 3224.4909 C
1499.1201 3224.4909 1494.1112 3213.903 1491.7219 3205.8162 c
1489.8401 3199.448 1485.6919 3180.1872 1466.1911 3177.2962 C
1420.1689 3177.2962 L
1400.668 3180.1872 1396.5197 3199.448 1394.638 3205.8162 c
1392.2486 3213.903 1387.2396 3224.4909 1387.2396 3224.4909 C
1385.5848 3228.0201 1382.7291 3231.1548 1382.0439 3231.6299 c
1380.5568 3232.6614 1379.7832 3233.4993 1377.3613 3233.0465 C
1377.3613 3233.0465 1370.4138 3227.8544 1364.7877 3230.2731 c
1359.6989 3232.4611 1356.6198 3235.7426 1356.8762 3243.2829 c
1357.1328 3250.8232 1366.1568 3252.7765 1366.1568 3252.7765 C
1370.3525 3253.7789 1374.1136 3254.0903 1378.0429 3252.515 C
1388.3561 3250.5345 1399.7131 3236.3983 1401.6203 3230.3665 C
1401.6203 3230.3665 1404.0894 3224.7971 1410.948 3208.4241 c
1417.8067 3192.0514 1428.7068 3200.689 1428.7068 3200.689 C
1435.1957 3205.038 1437.1552 3210.6678 1434.5856 3217.5774 C
1432.8749 3223.5549 1422.3926 3220.7206 1422.3926 3220.7206 C
1420.6912 3231.6984 1424.2551 3236.3608 1433.084 3234.7072 C
1433.1696 3250.3347 1443.146 3253.929 1443.2107 3253.9041 C
1443.2166 3253.9064 1443.3098 3253.8777 1443.4739 3253.8118 C
1442.886 3253.8118 L
b
U
1 XR
8.4891 w
0 j
[] 0 d
1388.749 2728.04 m
1401.8975 3162.7175 L
1487.5261 3162.7175 L
1500.1559 2728.04 L
1388.749 2728.04 L
b
1 XR
[] 0 d
1381.3744 2486.3243 m
1381.37 2683.7166 L
1499.679 2683.7538 L
1499.679 2486.3243 L
1381.3744 2486.3243 L
b
0 XR
u
[] 0 d
1379.4382 2706.2267 m
1499.3642 2706.2267 L
1507.7178 2706.2267 1514.4896 2701.1354 1514.4896 2694.8548 c
1514.4896 2688.5742 1507.7178 2683.4829 1499.3642 2683.4829 c
1379.4382 2683.4829 L
1371.0846 2683.4829 1364.3129 2688.5742 1364.3129 2694.8548 c
1364.3129 2701.1354 1371.0846 2706.2267 1379.4382 2706.2267 c
1379.4382 2706.2267 L
b
2399.0251 4491.4569 m
B
U
1 XR
[] 0 d
1388.33 2727.5624 m
1493.0181 2727.5624 L
1500.4563 2727.5624 1506.4859 2722.7862 1506.4859 2716.8946 C
1506.4859 2716.8946 L
1506.4859 2711.0027 1500.4563 2706.2267 1493.0181 2706.2267 C
1388.33 2706.2267 L
1380.8919 2706.2267 1374.8624 2711.0027 1374.8624 2716.8946 C
1374.8624 2716.8946 L
1374.8624 2722.7862 1380.8919 2727.5624 1388.33 2727.5624 C
b
1 XR
[] 0 d
1408.0734 2646.7426 m
1471.2773 2646.7426 L
1471.2773 2516.6042 L
1408.0734 2516.6042 L
1408.0734 2646.7426 L
s
0 XR
u
4.8999 w
[] 0 d
1406.7565 3177.879 m
1479.3608 3177.879 L
1485.3276 3177.879 1490.1646 3174.3638 1490.1646 3170.0275 c
1490.1646 3165.6912 1485.3276 3162.176 1479.3608 3162.176 c
1406.7565 3162.176 L
1400.7897 3162.176 1395.9528 3165.6912 1395.9528 3170.0275 c
1395.9528 3174.3638 1400.7897 3177.879 1406.7565 3177.879 c
1406.7565 3177.879 L
b
2405.121 5283.4137 m
B
U
U
U
1 XR
10 w
[] 0 d
847.7157 2462.7045 m
2053.4545 2462.7045 L
2053.4545 2422.0474 L
847.7157 2422.0474 L
847.7157 2462.7045 L
b
0 XR
u
1 R
6.0001 w
[] 0 d
796.2751 2422.3924 m
2105.7302 2422.3924 L
2105.7302 2379.3438 L
796.2751 2379.3438 L
796.2751 2422.3924 L
b
2418.361 4001.4775 m
B
U
1 XR
0 R
9.5504 w
[] 0 d
883.3692 3345.5399 m
2009.156 3345.5399 L
2009.156 3320.6315 L
883.3692 3320.6315 L
883.3692 3345.5399 L
b
1 XR
4.8999 w
1 j
[] 0 d
1797.1012 3346.3025 m
1738.7738 3486.033 1603.4054 3583.6664 1445.7207 3583.6664 c
1288.1313 3583.6664 1152.8347 3485.8972 1094.4491 3346.3025 C
954.5127 3346.3025 L
1019.2369 3561.0732 1214.8936 3718.5244 1445.7215 3718.5244 c
1676.7063 3718.5244 1872.4776 3561.3674 1937.1358 3346.3712 C
1797.1012 3346.3025 L
b
1 XR
6.0001 w
0 j
[] 0 d
913.6206 3320.3185 m
913.6206 3320.3185 933.0794 3308.6786 949.2857 3274.0215 C
1950.8128 3274.0611 L
1950.8128 3274.0611 1967.2835 3312.812 1989.9721 3320.3933 c
913.6206 3320.3185 L
b
0 XR
u
1 XR
4.8999 w
1 j
[] 0 d
1162.0932 3265.0194 m
1162.0932 3265.0194 1254.8734 3105.7874 1443.5395 3107.9801 c
1629.91 3110.1461 1724.9861 3259.6042 1724.9861 3259.6042 C
1774.6848 3185.9582 L
1774.6848 3185.9582 1793.0517 3161.0486 1757.3983 3129.6406 c
1631.442 3018.6834 1531.6677 2996.8768 1443.5395 2997.511 C
1313.3851 3004.6344 1208.4022 3048.6791 1128.6005 3129.6406 C
1114.246 3141.5758 1111.3139 3157.2579 1115.6357 3170.2542 C
1162.0932 3265.0194 L
b
1 XR
6.3669 w
0 j
[] 0 d
1113.7449 3153.7381 m
1113.7449 3153.7381 1108.0732 3185.957 1158.8523 3159.9642 c
1162.6335 3264.4779 L
S
1 XR
[] 0 d
1778.1961 3175.6695 m
1761.99 3210.5971 1732.2776 3167.8187 1732.2776 3167.8187 c
1724.7971 3259.0627 L
S
U
0 XR
u
5 w
[] 0 d
943.8686 3272.1449 m
1950.8131 3272.1449 L
1954.3931 3272.1449 1957.2952 3269.1177 1957.2952 3265.3835 c
1957.2952 3263.1312 L
1957.2952 3259.3969 1954.3931 3256.3698 1950.8131 3256.3698 c
943.8686 3256.3698 L
940.2886 3256.3698 937.3865 3259.3969 937.3865 3263.1312 c
937.3865 3265.3835 L
937.3865 3269.1177 940.2886 3272.1449 943.8686 3272.1449 c
943.8686 3272.1449 L
b
2412.2579 5440.464 m
B
U
0 XR
u
0 XR
u
0 XR
u
0 XR
0 w
1 j
[] 0 d
1032.8737 3255.0618 m
1033.0379 3255.1278 1033.131 3255.1564 1033.1371 3255.1542 C
1033.2018 3255.179 1043.1782 3251.5847 1043.2636 3235.9572 C
1052.0925 3237.6108 1055.6564 3232.9484 1053.955 3221.9706 C
1053.955 3221.9706 1043.4727 3224.8049 1041.7621 3218.8274 C
1039.1924 3211.9178 1041.1521 3206.288 1047.6409 3201.939 C
1047.6409 3201.939 1058.5409 3193.3014 1065.3996 3209.6741 c
1072.2581 3226.0472 1074.7273 3231.6165 1074.7273 3231.6165 C
1076.6347 3237.6483 1087.9915 3251.7845 1098.3048 3253.765 C
1102.234 3255.3403 1105.9951 3255.0289 1110.1909 3254.0265 C
1110.1909 3254.0265 1119.2148 3252.0732 1119.4714 3244.5329 c
1119.7279 3236.9926 1116.6488 3233.7111 1111.5599 3231.5231 c
1105.9338 3229.1044 1098.9866 3234.2965 1098.9866 3234.2965 C
1096.5644 3234.7493 1095.7909 3233.9114 1094.3036 3232.8799 c
1093.6185 3232.4048 1090.763 3229.2701 1089.108 3225.7409 C
1089.108 3225.7409 1084.099 3215.153 1081.7096 3207.0662 c
1079.828 3200.698 1075.6796 3181.4372 1056.1787 3178.5462 C
1010.1567 3178.5462 L
990.6556 3181.4372 986.5075 3200.698 984.6257 3207.0662 c
982.2364 3215.153 977.2275 3225.7409 977.2275 3225.7409 C
975.5724 3229.2701 972.7168 3232.4048 972.0319 3232.8799 c
970.5446 3233.9114 969.7711 3234.7493 967.3491 3234.2965 C
967.3491 3234.2965 960.4016 3229.1044 954.7756 3231.5231 c
949.6867 3233.7111 946.6076 3236.9926 946.8641 3244.5329 c
947.1207 3252.0732 956.1445 3254.0265 956.1445 3254.0265 C
960.3404 3255.0289 964.1015 3255.3403 968.0307 3253.765 C
978.3438 3251.7845 989.7008 3237.6483 991.6082 3231.6165 C
991.6082 3231.6165 994.0772 3226.0472 1000.9358 3209.6741 c
1007.7944 3193.3014 1018.6946 3201.939 1018.6946 3201.939 C
1025.1834 3206.288 1027.1431 3211.9178 1024.5734 3218.8274 C
1022.8629 3224.8049 1012.3805 3221.9706 1012.3805 3221.9706 C
1010.679 3232.9484 1014.243 3237.6108 1023.0717 3235.9572 C
1023.1573 3251.5847 1033.1337 3255.179 1033.1986 3255.1542 C
1033.2044 3255.1564 1033.2976 3255.1278 1033.4616 3255.0618 C
1032.8737 3255.0618 L
b
U
1 XR
8.4891 w
0 j
[] 0 d
977.4643 2728.04 m
992.2797 3162.7175 L
1074.5749 3162.7175 L
1088.8712 2728.04 L
977.4643 2728.04 L
b
1 XR
[] 0 d
974.0155 2486.3243 m
974.0152 2683.7166 L
1092.3202 2683.7538 L
1092.3202 2486.3243 L
974.0155 2486.3243 L
b
1 XR
[] 0 d
973.2047 2706.2267 m
1093.1307 2706.2267 L
1101.4842 2706.2267 1108.256 2701.1354 1108.256 2694.8549 C
1108.256 2694.8547 L
1108.256 2688.5742 1101.4842 2683.4829 1093.1307 2683.4829 C
973.2047 2683.4829 L
964.8512 2683.4829 958.0793 2688.5742 958.0793 2694.8547 C
958.0793 2694.8549 L
958.0793 2701.1354 964.8512 2706.2267 973.2047 2706.2267 C
b
1 XR
[] 0 d
980.8237 2727.5624 m
1085.5118 2727.5624 L
1092.9499 2727.5624 1098.9796 2722.7862 1098.9796 2716.8946 C
1098.9796 2716.8946 L
1098.9796 2711.0027 1092.9499 2706.2267 1085.5118 2706.2267 C
980.8237 2706.2267 L
973.3858 2706.2267 967.3559 2711.0027 967.3559 2716.8946 C
967.3559 2716.8946 L
967.3559 2722.7862 973.3858 2727.5624 980.8237 2727.5624 C
b
1 XR
[] 0 d
1001.5658 2646.7426 m
1064.7697 2646.7426 L
1064.7697 2516.6042 L
1001.5658 2516.6042 L
1001.5658 2646.7426 L
s
0 XR
u
4.8999 w
[] 0 d
996.8656 3176.2139 m
1069.4699 3176.2139 L
1075.4367 3176.2139 1080.2736 3172.6987 1080.2736 3168.3624 c
1080.2736 3164.0261 1075.4367 3160.5109 1069.4699 3160.5109 c
996.8656 3160.5109 L
990.8988 3160.5109 986.0619 3164.0261 986.0619 3168.3624 c
986.0619 3172.6987 990.8988 3176.2139 996.8656 3176.2139 c
996.8656 3176.2139 L
b
1721.9673 5280.6386 m
B
U
U
1 XR
4.0833 w
[] 0 d
948.896 2485.8235 m
1117.4396 2485.8235 L
1117.4396 2463.0799 L
948.896 2463.0799 L
948.896 2485.8235 L
b
U
0 XR
u
0 XR
u
0 XR
u
0 XR
0 w
1 j
[] 0 d
1858.9909 3253.8118 m
1859.1551 3253.8777 1859.2482 3253.9064 1859.2541 3253.9041 C
1859.3188 3253.929 1869.2953 3250.3347 1869.3809 3234.7072 C
1878.2097 3236.3608 1881.7736 3231.6984 1880.0722 3220.7206 C
1880.0722 3220.7206 1869.5898 3223.5549 1867.8792 3217.5774 C
1865.3096 3210.6678 1867.2691 3205.038 1873.7581 3200.689 C
1873.7581 3200.689 1884.6582 3192.0514 1891.5168 3208.4241 c
1898.3753 3224.7971 1900.8444 3230.3665 1900.8444 3230.3665 C
1902.7519 3236.3983 1914.1087 3250.5345 1924.422 3252.515 C
1928.3512 3254.0903 1932.1122 3253.7789 1936.308 3252.7765 C
1936.308 3252.7765 1945.3318 3250.8232 1945.5885 3243.2829 c
1945.8451 3235.7426 1942.766 3232.4611 1937.6769 3230.2731 c
1932.051 3227.8544 1925.1036 3233.0465 1925.1036 3233.0465 C
1922.6816 3233.4993 1921.9081 3232.6614 1920.4207 3231.6299 c
1919.7357 3231.1548 1916.8802 3228.0201 1915.2251 3224.4909 C
1915.2251 3224.4909 1910.2162 3213.903 1907.8268 3205.8162 c
1905.9451 3199.448 1901.797 3180.1872 1882.296 3177.2962 C
1836.2738 3177.2962 L
1816.7729 3180.1872 1812.6246 3199.448 1810.7431 3205.8162 c
1808.3535 3213.903 1803.3445 3224.4909 1803.3445 3224.4909 C
1801.6897 3228.0201 1798.834 3231.1548 1798.1489 3231.6299 c
1796.6616 3232.6614 1795.8881 3233.4993 1793.4662 3233.0465 C
1793.4662 3233.0465 1786.5188 3227.8544 1780.8928 3230.2731 c
1775.8037 3232.4611 1772.7246 3235.7426 1772.9813 3243.2829 c
1773.2379 3250.8232 1782.2617 3252.7765 1782.2617 3252.7765 C
1786.4576 3253.7789 1790.2186 3254.0903 1794.1477 3252.515 C
1804.4612 3250.5345 1815.818 3236.3983 1817.7254 3230.3665 C
1817.7254 3230.3665 1820.1944 3224.7971 1827.0531 3208.4241 c
1833.9116 3192.0514 1844.8119 3200.689 1844.8119 3200.689 C
1851.3004 3205.038 1853.2601 3210.6678 1850.6906 3217.5774 C
1848.9799 3223.5549 1838.4975 3220.7206 1838.4975 3220.7206 C
1836.7963 3231.6984 1840.36 3236.3608 1849.1889 3234.7072 C
1849.2745 3250.3347 1859.2511 3253.929 1859.3156 3253.9041 C
1859.3215 3253.9064 1859.4148 3253.8777 1859.5788 3253.8118 C
1858.9909 3253.8118 L
b
U
1 XR
8.4891 w
0 j
[] 0 d
1805.6953 2728.04 m
1820.5106 3162.7175 L
1902.8059 3162.7175 L
1917.1022 2728.04 L
1805.6953 2728.04 L
b
1 XR
[] 0 d
1804.9491 2486.3243 m
1803.7013 2683.7166 L
1923.2538 2683.7538 L
1923.2538 2486.3243 L
1804.9491 2486.3243 L
b
0 XR
u
[] 0 d
1803.856 2706.2267 m
1923.7819 2706.2267 L
1932.1355 2706.2267 1938.9074 2701.1354 1938.9074 2694.8548 c
1938.9074 2688.5742 1932.1355 2683.4829 1923.7819 2683.4829 c
1803.856 2683.4829 L
1795.5023 2683.4829 1788.7305 2688.5742 1788.7305 2694.8548 c
1788.7305 2701.1354 1795.5023 2706.2267 1803.856 2706.2267 c
1803.856 2706.2267 L
b
3106.3902 4491.4569 m
B
U
1 XR
[] 0 d
1809.9476 2727.5624 m
1914.6356 2727.5624 L
1922.0737 2727.5624 1928.1033 2722.7862 1928.1033 2716.8946 C
1928.1033 2716.8946 L
1928.1033 2711.0027 1922.0737 2706.2267 1914.6356 2706.2267 C
1809.9476 2706.2267 L
1802.5094 2706.2267 1796.4799 2711.0027 1796.4799 2716.8946 C
1796.4799 2716.8946 L
1796.4799 2722.7862 1802.5094 2727.5624 1809.9476 2727.5624 C
b
1 XR
[] 0 d
1831.4084 2646.7426 m
1894.6123 2646.7426 L
1894.6123 2516.6042 L
1831.4084 2516.6042 L
1831.4084 2646.7426 L
s
0 XR
u
4.8999 w
[] 0 d
1824.5383 3177.879 m
1897.1424 3177.879 L
1903.1092 3177.879 1907.9461 3174.3638 1907.9461 3170.0275 c
1907.9461 3165.6912 1903.1092 3162.176 1897.1424 3162.176 c
1824.5383 3162.176 L
1818.5715 3162.176 1813.7346 3165.6912 1813.7346 3170.0275 c
1813.7346 3174.3638 1818.5715 3177.879 1824.5383 3177.879 c
1824.5383 3177.879 L
b
3101.4258 5283.4137 m
B
U
U
1 XR
4.0833 w
[] 0 d
1353.5052 2485.8235 m
1522.0488 2485.8235 L
1522.0488 2463.0799 L
1353.5052 2463.0799 L
1353.5052 2485.8235 L
b
U
1 XR
7.428 w
[] 0 d
727.7902 2794.0269 m
699.1595 2814.6046 668.9081 2809.1893 668.9081 2809.1893 C
668.9081 2809.1893 690.7694 2838.2994 725.6294 2823.8102 c
747.7778 2814.6046 766.685 2780.489 822.8662 2816.2292 c
879.0474 2851.969 900.8518 2870.0271 950.3544 2886.626 c
1001.2158 2903.6803 1041.1088 2907.2034 1052.9933 2911.5357 c
1064.8777 2915.8678 1083.4729 2922.6563 1092.9684 2979.7665 c
1095.1292 2992.7629 1146.9888 2871.4636 1146.9888 2871.4636 C
1146.9888 2871.4636 1139.4259 2831.3914 1089.7271 2808.6478 c
1040.0283 2785.9041 953.9164 2772.2985 906.0577 2733.9187 c
889.8514 2720.9225 858.7106 2698.452 839.8827 2670.8322 c
795.5859 2605.8506 749.3984 2598.5401 749.3984 2598.5401 C
749.3984 2598.5401 791.278 2635.2182 802.8787 2684.6408 c
805.0395 2693.8466 801.508 2735.2522 818.0044 2751.7888 c
800.4873 2734.2291 756.1367 2768.8267 761.8231 2764.2437 C
761.8231 2764.2437 756.4212 2773.4493 727.7902 2794.0269 c
b
1 XR
[] 0 d
1800.0958 2978.724 m
1800.0958 2978.724 1808.7388 2929.4461 1905.4354 2904.5365 c
2002.132 2879.6267 2017.2577 2848.2189 2032.9238 2840.6377 c
2048.5897 2833.0565 2089.2952 2803.8668 2132.8615 2818.4357 c
2150.0257 2824.1754 2197.987 2837.3892 2201.9023 2834.4529 C
2203.3705 2832.0059 2188.1991 2806.5571 2186.3418 2804.3563 c
2154.2593 2766.34 2142.045 2760.4935 2130.1604 2754.5369 c
2104.2042 2741.5271 2102.1983 2739.948 2083.703 2738.8328 C
2083.703 2738.8328 2100.9895 2717.1723 2103.6904 2681.9737 c
2106.3914 2646.7754 2153.3892 2611.0354 2153.3892 2611.0354 C
2153.3892 2611.0354 2090.7256 2627.2807 2063.1752 2664.6453 c
2035.6247 2702.0099 1990.2476 2733.9592 1973.5011 2742.0819 c
1956.7549 2750.2047 1871.4027 2779.4465 1853.5758 2786.4862 c
1835.7491 2793.5258 1780.1082 2822.7677 1772.5452 2869.8794 c
1764.9824 2916.9913 1800.0958 2978.724 1800.0958 2978.724 C
b
0 XR
[] 0 d
883.3066 2940.8287 m
817.6716 2966.5507 837.9397 2983.9119 837.9397 2983.9119 C
854.0899 3012.7868 875.2471 3049.0555 955.2163 3079.8252 c
1062.1766 3120.9805 1171.2979 3102.5688 1142.127 3054.9155 c
1124.3932 3025.9462 1093.7787 2975.3131 1093.7787 2975.3131 C
1093.7787 2975.3131 1081.0837 3009.4281 1022.7419 2987.7678 c
964.3997 2966.1073 946.3898 2956.9286 942.9291 2945.4802 c
937.5271 2927.6103 939.6879 2916.2386 981.8238 2922.7366 C
954.2733 2913.5309 923.5793 2923.1359 889.1198 2938.4688 C
883.3066 2940.8287 l
b
0 XR
6.3671 w
1 j
[] 0 d
1883.5572 2989.3924 m
1895.6876 2986.2678 1916.392 2976.2187 1928.5968 2967.4534 C
1988.0611 2924.7488 1977.1131 2887.493 1960.6273 2886.5208 c
1942.2602 2885.4378 2077.2205 2889.212 2093.4266 2897.8763 c
2109.6327 2906.5406 2115.0348 2916.2879 2105.3111 2936.8654 c
2095.5874 2957.4428 2022.1196 3083.0743 1902.1943 3106.901 c
1782.2689 3130.7277 1734.7452 3080.1626 1744.9949 3063.0382 c
1754.7184 3046.7929 1799.0144 2992.6427 1800.635 2970.4406 c
1812.9373 2993.6734 1840.6083 3000.2924 1883.5572 2989.3924 C
b
0 XR
u
1 XR
0 0.1451 0.4667 (PANTONE 287 CVC) 0 1 Xx
1863.6323 3018.9601 m
1851.3374 3016.8977 L
1845.3085 3053.0271 L
1833.0335 3013.8271 L
1826.0756 3012.6599 L
1802.9288 3045.9177 L
1808.9577 3009.7883 L
1799.6673 3008.2299 L
1789.1621 3071.1851 L
1799.1245 3072.8563 L
1829.1908 3030.7665 L
1844.311 3080.4364 L
1853.127 3081.9153 L
1863.6323 3018.9601 L
f
1 XR
*u
1 XR
1921.6434 3036.7863 m
1919.6409 3026.9211 1915.8857 3019.8442 1910.3808 3015.5578 c
1904.8799 3011.2975 1898.4778 3009.9149 1891.172 3011.4038 c
1883.9451 3012.878 1878.6171 3016.6545 1875.1886 3022.7362 c
1871.7653 3028.8439 1871.041 3036.7616 1873.0157 3046.4894 C
1873.7393 3050.0542 L
1875.579 3059.1175 1879.161 3066.084 1884.4857 3070.9563 c
1889.836 3075.8219 1896.5437 3077.4322 1904.609 3075.787 c
1912.4902 3074.1795 1917.8578 3070.0629 1920.7131 3063.4372 c
1923.593 3056.8065 1924.1297 3049.0416 1922.3249 3040.1438 C
1921.6434 3036.7863 L
f
1 XR
1908.379 3040.3553 m
1908.7239 3042.0548 L
1910.2889 3049.7645 1910.8215 3055.6129 1910.3219 3059.5998 c
1909.8223 3063.5867 1907.2024 3066.0636 1902.4633 3067.0302 c
1898.0901 3067.9223 1894.8471 3066.8571 1892.7342 3063.8348 c
1890.6471 3060.8071 1888.737 3055.024 1887.0038 3046.4852 C
1886.6924 3044.9515 L
1884.9479 3036.3571 1884.3909 3030.3262 1885.0243 3026.8597 c
1885.6562 3023.392 1888.3025 3021.1836 1892.9642 3020.2327 c
1896.7863 3019.4531 1899.8997 3020.6162 1902.3033 3023.7236 c
1904.7325 3026.8244 1906.7577 3032.3683 1908.379 3040.3553 C
f
*U
1 XR
*u
1 XR
1972.8084 3009.1713 m
1967.8815 3000.0751 1962.5088 2994.2556 1956.6918 2991.7107 c
1950.8961 2989.1526 1944.6536 2989.6958 1937.9608 2993.3392 C
1918.4811 3003.9435 L
1948.8652 3060.0403 L
1966.337 3050.5291 L
1974.321 3046.1827 1978.7188 3040.6599 1979.5302 3033.9605 c
1980.3779 3027.2729 1978.5469 3019.7661 1974.0366 3011.4389 C
1972.8084 3009.1713 L
f
1 XR
1960.9626 3016.1012 m
1961.7882 3017.6253 L
1965.1168 3023.7708 1966.6502 3029.0178 1966.3901 3033.3638 c
1966.1282 3037.7092 1964.2596 3040.8278 1960.785 3042.7208 C
1956.3114 3045.1562 L
1934.9882 3005.788 L
1940.4834 3002.7966 L
1943.8881 3000.9431 1947.1522 3000.851 1950.2767 3002.5196 c
1953.4133 3004.2132 1956.9741 3008.74 1960.9626 3016.1012 C
f
*U
1 XR
1987.2178 2950.3575 m
1959.7984 2977.3731 L
2004.4329 3022.9069 L
2030.6803 2997.0463 L
2024.0251 2990.257 L
2007.4989 3006.5396 L
1995.5194 2994.3188 L
2008.3572 2981.6702 L
2001.6132 2974.7903 L
1988.7754 2987.4389 L
1976.1748 2974.5844 L
1993.8731 2957.1469 L
1987.2178 2950.3575 L
f
1 XR
*u
1 XR
2013.8644 2905.6155 m
2007.0291 2917.25 L
2015.8208 2922.567 2021.6603 2927.1027 2024.5476 2930.8598 c
2027.4709 2934.6076 2027.9692 2938.12 2026.0448 2941.3983 C
2024.4173 2944.1684 L
1999.7666 2929.6118 L
1992.8501 2941.3849 L
2047.7141 2973.7831 L
2059.7978 2953.2148 L
2062.7405 2948.2059 2063.6823 2943.9902 2062.6254 2940.5663 c
2061.5802 2937.12 2059.3973 2934.4172 2056.078 2932.4557 C
2053.0966 2930.6951 L
2049.9698 2928.8487 2046.9253 2928.2794 2043.9634 2928.9863 c
2041.0011 2929.6943 2038.2782 2931.7709 2035.7973 2935.2177 C
2036.9261 2930.3501 2035.8768 2925.5796 2032.6484 2920.9054 c
2029.4571 2916.2225 2023.1958 2911.1259 2013.8644 2905.6155 C
f
1 XR
2045.1547 2941.6295 m
2046.6453 2942.5098 L
2049.02 2943.912 2050.3635 2945.5143 2050.6776 2947.3161 C
2050.99 2949.1184 2050.4552 2951.1958 2049.0718 2953.5504 C
2046.8138 2957.394 L
2032.307 2948.8274 L
2034.1785 2945.6418 L
2035.8193 2942.8489 2037.5251 2941.1672 2039.2976 2940.5961 C
2041.0683 2940.0254 2043.0203 2940.3705 2045.1547 2941.6295 C
f
*U
U
0 XR
u
1 XR
*u
1 XR
1841.6044 2826.8329 m
1830.3193 2835.053 L
1835.6977 2850.0636 L
1819.5483 2861.8268 L
1806.8735 2852.1309 L
1797.8908 2858.6739 L
1851.7892 2898.3167 L
1862.069 2890.8288 L
1841.6044 2826.8329 L
f
1 XR
1838.7695 2859.2248 m
1846.5023 2882.6119 L
1827.0952 2867.7283 L
1838.7695 2859.2248 L
f
*U
1 XR
1912.4807 2853.3439 m
1900.6639 2859.1222 L
1876.9142 2810.3045 L
1864.6651 2816.2942 L
1888.4148 2865.1119 L
1876.3098 2871.0312 L
1880.4715 2879.5857 L
1916.6425 2861.8984 L
1912.4807 2853.3439 L
f
1 XR
1916.8401 2793.3352 m
1904.2951 2798.674 L
1929.1733 2857.4323 L
1941.7184 2852.0935 L
1916.8401 2793.3352 L
f
1 XR
*u
1 XR
1989.973 2793.7449 m
1985.8884 2784.5475 1980.6945 2778.453 1974.3946 2775.4626 c
1968.1042 2772.4968 1961.5551 2772.5363 1954.7435 2775.5754 c
1948.0057 2778.583 1943.619 2783.4266 1941.5844 2790.1084 c
1939.5604 2796.8145 1940.5623 2804.7021 1944.59 2813.7714 C
1946.066 2817.0948 L
1949.8185 2825.5446 1954.8195 2831.569 1961.07 2835.1705 c
1967.3439 2838.76 1974.2406 2838.8765 1981.76 2835.52 c
1989.1077 2832.2401 1993.4598 2827.056 1994.8174 2819.9674 c
1996.1979 2812.8684 1995.0459 2805.1708 1991.3631 2796.875 C
1989.973 2793.7449 L
f
1 XR
1977.7927 2800.108 m
1978.4963 2801.6924 L
1981.6885 2808.8802 1983.4709 2814.4747 1983.8437 2818.4757 c
1984.2165 2822.4768 1982.1932 2825.4637 1977.7749 2827.4359 c
1973.6977 2829.2559 1970.3014 2828.9197 1967.5862 2826.4274 c
1964.8949 2823.9243 1961.7816 2818.6924 1958.2463 2810.7317 C
1957.6113 2809.3018 L
1954.0529 2801.2892 1952.2073 2795.5218 1952.0774 2791.9998 c
1951.9459 2788.4771 1954.0529 2785.7466 1958.399 2783.8066 c
1961.9625 2782.2159 1965.2533 2782.6759 1968.2708 2785.1881 c
1971.3118 2787.6885 1974.4858 2792.6618 1977.7927 2800.108 C
f
*U
1 XR
2027.9189 2739.4283 m
2022.8506 2742.362 L
2016.6415 2792.2618 L
1996.6414 2757.5325 L
1988.2406 2762.3952 L
2020.0761 2817.6762 L
2026.3941 2814.0192 L
2032.5139 2766.8577 L
2051.3535 2799.572 L
2059.7543 2794.7094 L
2027.9189 2739.4283 L
f
U
0 XR
u
1 XR
956.9217 3060.0002 m
975.3531 2996.6335 L
966.9009 2991.5419 L
934.6468 3020.6235 L
944.877 2978.2747 L
936.4247 2973.1831 L
889.3037 3019.2673 L
901.1231 3026.3874 L
930.9008 2997.1463 L
920.3984 3037.9987 L
928.6788 3042.9868 L
959.7965 3014.553 L
947.473 3054.3084 L
956.9217 3060.0002 L
f
1 XR
1010.6427 3007.6061 m
997.6097 3003.6115 L
978.994 3064.6548 L
992.027 3068.6494 L
1010.6427 3007.6061 L
f
1 XR
1065.2438 3036.071 m
1066.1834 3029.3685 1064.7609 3024.1126 1060.9774 3020.3049 c
1057.1888 3016.5246 1051.5247 3014.1033 1043.9827 3013.0407 c
1039.6684 3012.4328 1035.9929 3012.186 1032.9551 3012.2987 C
1029.9161 3012.4112 1027.3746 3012.7366 1025.3297 3013.2748 C
1023.8028 3024.1665 L
1025.4483 3023.4011 1027.9435 3022.8275 1031.2899 3022.4446 c
1034.6311 3022.089 1037.8634 3022.1319 1040.9869 3022.572 c
1045.3794 3023.1908 1048.3101 3024.2298 1049.779 3025.6903 C
1051.274 3027.1531 1051.8219 3029.3088 1051.4223 3032.1587 c
1051.1639 3034.0019 1050.3395 3035.5518 1048.949 3036.8083 C
1047.5585 3038.0648 1043.9065 3039.4726 1037.9943 3041.0319 c
1033.2824 3042.3037 1029.5027 3044.2342 1026.6577 3046.825 C
1023.8078 3049.4417 1022.0271 3053.2918 1021.3145 3058.375 c
1020.6333 3063.2344 1022.0152 3067.6154 1025.4628 3071.5186 c
1028.9352 3075.4253 1034.1384 3077.8671 1041.0726 3078.844 c
1044.433 3079.3175 1047.491 3079.4493 1050.2464 3079.2394 C
1053.024 3079.0607 1054.9861 3078.8246 1056.1341 3078.5311 C
1057.4848 3068.8962 L
1055.1263 3069.162 1052.7914 3069.359 1050.4797 3069.4898 c
1048.1669 3069.6192 1045.7417 3069.5044 1043.201 3069.1478 c
1039.6012 3068.6407 1037.0908 3067.6889 1035.6675 3066.2923 C
1034.2441 3064.8956 1033.6557 3063.3176 1033.9024 3061.5582 c
1034.2157 3059.3236 1035.048 3057.7174 1036.3992 3056.7411 c
1037.7507 3055.7634 1041.4807 3054.5655 1047.5893 3053.1487 c
1053.2775 3051.8422 1057.4822 3049.758 1060.2048 3046.895 C
1062.9495 3044.0632 1064.6292 3040.4552 1065.2438 3036.071 c
f
U
0 XR
u
1 XR
1262.3087 3079.4694 m
1260.3546 3075.6246 1257.486 3072.9903 1253.7036 3071.5677 c
1249.9572 3070.1578 1245.6201 3070.7114 1240.6911 3073.2292 c
1237.8093 3074.7013 1235.5901 3076.0887 1234.0329 3077.3901 c
1232.4981 3078.68 1231.3436 3079.9493 1230.5707 3081.2003 C
1234.9963 3089.9076 L
1235.7202 3089.0304 1236.7482 3088.0156 1238.0812 3086.8599 C
1239.4492 3085.7174 1240.9081 3084.7511 1242.4562 3083.9603 c
1243.9317 3083.2066 1245.422 3082.9825 1246.9293 3083.2897 c
1248.4348 3083.5964 1249.6986 3084.7551 1250.7206 3086.7658 C
1272.3696 3129.36 L
1284.5134 3123.1568 L
1262.3087 3079.4694 L
f
1 XR
1331.4915 3053.9598 m
1329.3432 3048.3515 1326.0238 3044.5829 1321.5364 3042.6542 c
1317.0577 3040.7518 1311.3879 3041.1202 1304.5284 3043.7588 c
1297.1684 3046.59 1292.5311 3050.3223 1290.6142 3054.9567 c
1288.6972 3059.5912 1289.0195 3065.2519 1291.5815 3071.9401 C
1306.9378 3112.0273 L
1319.6604 3107.1333 L
1303.6839 3065.4268 L
1302.4433 3062.1882 1302.1953 3059.4883 1302.9431 3057.3286 C
1303.7238 3055.1846 1305.8242 3053.4562 1309.2422 3052.1413 c
1312.41 3050.9228 1315.0317 3050.7442 1317.1092 3051.6075 C
1319.2097 3052.4605 1320.976 3054.7563 1322.4097 3058.4955 C
1338.2955 3099.965 L
1347.7252 3096.3377 L
1331.4915 3053.9598 L
f
1 XR
1398.8452 3040.1967 m
1398.0224 3033.4787 1395.2914 3028.771 1390.6537 3026.0748 c
1386.0182 3023.4063 1379.9218 3022.5372 1372.3623 3023.4678 c
1368.038 3024.0001 1364.424 3024.7154 1361.5187 3025.6125 C
1358.6122 3026.5097 1356.2414 3027.4835 1354.405 3028.534 C
1355.7421 3039.4508 L
1357.1339 3038.2846 1359.396 3037.0831 1362.5296 3035.8449 c
1365.6653 3034.6344 1368.7986 3033.8371 1371.9293 3033.4518 c
1376.332 3032.9098 1379.4311 3033.1529 1381.2269 3034.1825 C
1383.0487 3035.2075 1384.1344 3037.1476 1384.4843 3040.0041 c
1384.7106 3041.8516 1384.3143 3043.5625 1383.2956 3045.1371 C
1382.2768 3046.7116 1379.1127 3049.0191 1373.8044 3052.0593 c
1369.5813 3054.5104 1366.4288 3057.3559 1364.3495 3060.5966 C
1362.2722 3063.8638 1361.5461 3068.0448 1362.1701 3073.1397 c
1362.7666 3078.0103 1365.2326 3081.8835 1369.5704 3084.7592 c
1373.9331 3087.6318 1379.5896 3088.6403 1386.5399 3087.7847 c
1389.9081 3087.37 1392.8958 3086.7039 1395.5033 3085.7862 C
1398.1402 3084.8929 1399.9745 3084.1556 1401.0076 3083.5742 C
1399.8249 3073.917 L
1397.6154 3074.7857 1395.4108 3075.5819 1393.2116 3076.3081 c
1391.011 3077.0332 1388.6387 3077.5517 1386.0925 3077.8665 c
1382.4843 3078.3107 1379.8137 3078.0427 1378.0783 3077.063 C
1376.3428 3076.0833 1375.3671 3074.7116 1375.1512 3072.9482 c
1374.8768 3070.7084 1375.2662 3068.941 1376.3193 3067.6472 c
1377.3723 3066.3522 1380.6661 3064.2272 1386.2008 3061.2737 c
1391.358 3058.5357 1394.8815 3055.4315 1396.7722 3051.9596 C
1398.6923 3048.512 1399.3833 3044.591 1398.8452 3040.1967 c
f
1 XR
1461.6208 3071.901 m
1448.4754 3072.1306 L
1447.528 3017.8247 L
1433.9016 3018.0628 L
1434.849 3072.3687 L
1421.3829 3072.604 L
1421.5489 3082.1202 L
1461.7868 3081.4172 L
1461.6208 3071.901 L
f
1 XR
1506.5598 3021.6096 m
1493.0327 3019.9443 L
1485.275 3083.3018 L
1498.8021 3084.9672 L
1506.5598 3021.6096 L
f
1 XR
1575.0055 3040.5941 m
1574.2999 3039.6992 1572.8576 3038.6089 1570.68 3037.3223 c
1568.5094 3036.0088 1565.8779 3034.8789 1562.7865 3033.9302 c
1554.9916 3031.5416 1547.8552 3032.1265 1541.3768 3035.6861 c
1534.9154 3039.28 1530.1835 3045.9986 1527.181 3055.8433 C
1526.4283 3058.3111 L
1523.6316 3067.4807 1523.8776 3075.6071 1527.1662 3082.6906 c
1530.4804 3089.7804 1535.9068 3094.4804 1543.4461 3096.7921 c
1546.6912 3097.7865 1549.4614 3098.4142 1551.7578 3098.6755 C
1554.0449 3098.963 1555.8878 3098.9678 1557.2867 3098.6887 C
1560.2481 3088.9793 L
1558.9594 3089.2618 1557.2959 3089.3562 1555.2572 3089.2637 C
1553.2428 3089.1772 1550.9717 3088.7467 1548.4417 3087.9715 c
1543.7387 3086.5303 1540.6471 3083.4734 1539.1662 3078.8033 c
1537.7096 3074.1392 1538.0188 3068.4099 1540.0917 3061.6133 C
1540.3509 3060.7637 L
1542.5719 3053.4817 1545.4396 3048.4769 1548.9541 3045.7495 c
1552.4937 3043.0298 1556.3977 3042.3239 1560.6658 3043.6318 c
1563.5528 3044.5164 1565.9291 3045.5681 1567.7927 3046.7889 C
1569.6474 3048.0347 1571.0936 3049.1123 1572.1305 3050.0203 C
1575.0055 3040.5941 L
f
1 XR
1640.5836 3071.1274 m
1606.3327 3053.6312 L
1577.4264 3110.5067 L
1610.213 3127.2548 L
1614.5231 3118.7744 L
1593.8797 3108.2293 L
1601.6378 3092.9645 L
1617.674 3101.1561 L
1622.0415 3092.5626 L
1606.0054 3084.371 L
1614.1658 3068.3147 L
1636.2735 3079.6078 L
1640.5836 3071.1274 L
f
U
0 XR
u
1 XR
*u
1 XR
922.5661 2804.298 m
927.5743 2795.2435 929.5856 2787.5734 928.6029 2781.2877 c
927.6428 2775.0129 923.833 2770.0274 917.1726 2766.3275 C
897.7874 2755.5588 L
866.9021 2811.398 L
884.2892 2821.0567 L
892.2345 2825.4704 899.2437 2826.2198 905.3169 2823.3049 c
911.3996 2820.427 916.7329 2814.8442 921.3176 2806.5553 C
922.5661 2804.298 L
f
1 XR
910.3728 2798.0082 m
909.5336 2799.5254 L
906.1501 2805.6426 902.5585 2809.7592 898.7618 2811.8752 c
894.9645 2813.9895 891.3367 2814.086 887.8777 2812.166 C
883.4258 2809.693 L
905.1008 2770.5056 L
910.5693 2773.5434 L
913.9576 2775.4256 915.7882 2778.1356 916.0622 2781.674 c
916.3216 2785.2361 914.4249 2790.6796 910.3728 2798.0082 C
f
*U
1 XR
*u
1 XR
980.0291 2828.299 m
983.9534 2819.0305 984.8573 2811.0648 982.7421 2804.4053 c
980.6154 2797.7697 976.1198 2792.9941 969.2566 2790.072 c
962.4666 2787.1825 955.9408 2787.2694 949.6781 2790.3349 c
943.405 2793.4248 938.3337 2799.5395 934.464 2808.6789 C
933.046 2812.0281 L
929.4407 2820.5432 928.4563 2828.3196 930.092 2835.3596 c
931.7524 2842.4086 936.3713 2847.5455 943.9489 2850.7701 c
951.3535 2853.9211 958.1041 2853.5767 964.2019 2849.7372 c
970.3227 2845.9075 975.153 2839.8123 978.6936 2831.4534 C
980.0291 2828.299 L
f
1 XR
967.0789 2823.7072 m
966.4029 2825.3039 L
963.336 2832.5474 960.4702 2837.6703 957.8053 2840.6727 c
955.1405 2843.675 951.5813 2844.2286 947.1289 2842.3339 c
943.0201 2840.5854 940.9489 2837.8656 940.9153 2834.1745 c
940.9059 2830.4937 942.5995 2824.6422 945.9962 2816.6198 C
946.6063 2815.1789 L
950.0251 2807.1043 952.9741 2801.8171 955.4551 2799.3196 c
957.9355 2796.8204 961.3647 2796.5031 965.7445 2798.3669 c
969.3355 2799.8951 971.2445 2802.622 971.4697 2806.5483 c
971.7197 2810.4837 970.2561 2816.2033 967.0789 2823.7072 C
f
*U
1 XR
1065.9808 2825.1959 m
1054.2664 2820.9213 L
1041.7687 2855.3452 L
1036.8267 2814.5576 L
1030.1974 2812.1385 L
1001.39 2840.611 L
1013.8877 2806.1871 L
1005.036 2802.9571 L
983.2589 2862.9407 L
992.7509 2866.4043 L
1029.9681 2830.5117 L
1035.804 2882.1144 L
1044.2037 2885.1794 L
1065.9808 2825.1959 L
f
U
0 XR
u
1 XR
1 O
1114.1453 3443.9136 m
1114.1068 3442.6028 1113.5302 3440.5799 1112.4176 3437.8452 c
1111.3295 3435.0916 1109.6989 3432.1645 1107.5284 3429.062 C
1102.0531 3421.2426 1095.174 3416.5462 1086.8898 3414.9738 c
1078.598 3413.4444 1069.7739 3415.9554 1060.4162 3422.5077 C
1058.0705 3424.1501 L
1049.3546 3430.2531 1044.1061 3437.6532 1042.325 3446.3504 C
1040.5628 3455.072 1042.3293 3463.2139 1047.6241 3470.7783 c
1049.9036 3474.0337 1051.9984 3476.6161 1053.9093 3478.5267 c
1055.7941 3480.4538 1057.4655 3481.805 1058.9248 3482.5795 C
1068.1538 3476.1172 L
1066.7926 3475.4264 1065.2173 3474.2944 1063.4268 3472.722 c
1061.6544 3471.1729 1059.8805 3469.1306 1058.1034 3466.5926 c
1054.7999 3461.8747 1054.0488 3456.899 1055.8476 3451.6673 c
1057.6645 3446.4587 1061.8034 3441.5943 1068.2637 3437.0707 C
1069.0713 3436.5052 L
1075.9931 3431.6585 1081.9691 3429.3079 1086.9995 3429.4533 c
1092.0475 3429.624 1096.0706 3431.8501 1099.0686 3436.1318 c
1101.0965 3439.0279 1102.5478 3441.6991 1103.4193 3444.1459 C
1104.266 3446.6083 1104.8546 3448.6228 1105.1854 3450.1874 C
1114.1453 3443.9136 L
f
1 XR
*u
1 XR
1148.7068 3529.1533 m
1156.7439 3521.3921 1161.0307 3513.553 1161.5673 3505.6402 C
1162.0817 3497.7466 1159.3045 3490.6619 1153.2402 3484.3798 c
1147.2399 3478.1663 1140.2768 3475.1667 1132.3487 3475.3831 c
1124.3995 3475.6199 1116.4622 3479.5649 1108.5371 3487.218 C
1105.633 3490.0225 L
1098.2492 3497.1528 1093.9561 3504.7574 1092.7515 3512.8381 c
1091.5695 3520.94 1094.3266 3528.458 1101.0228 3535.3923 c
1107.5662 3542.1683 1114.8756 3545.0068 1122.9519 3543.9091 c
1131.0486 3542.8324 1138.7218 3538.7936 1145.9716 3531.7947 C
1148.7068 3529.1533 L
f
1 XR
1136.8789 3518.2565 m
1135.4943 3519.5936 L
1129.2133 3525.659 1124.0314 3529.6189 1119.9487 3531.4732 C
1115.8659 3533.3275 1111.8568 3532.2169 1107.9222 3528.1424 c
1104.2912 3524.3824 1103.2289 3520.5791 1104.735 3516.7325 C
1106.2626 3512.908 1110.5046 3507.637 1117.461 3500.9193 C
1118.7104 3499.7127 L
1125.7122 3492.9512 1131.051 3488.8603 1134.7277 3487.4429 c
1138.4044 3486.0235 1142.177 3487.3178 1146.0474 3491.3257 c
1149.2207 3494.6118 1150.1079 3498.3457 1148.707 3502.5272 c
1147.3284 3506.7299 1143.3857 3511.973 1136.8789 3518.2565 C
f
*U
1 XR
1238.0374 3555.9774 m
1232.4925 3551.9488 L
1177.6604 3567.12 L
1203.8185 3531.1161 L
1194.6276 3524.4386 L
1152.9898 3581.7486 L
1159.902 3586.7705 L
1211.8492 3572.6948 L
1187.2087 3606.6098 L
1196.3996 3613.2873 L
1238.0374 3555.9774 L
f
1 XR
1300.0817 3608.5897 m
1303.256 3601.7823 1303.3344 3595.689 1300.3174 3590.3115 c
1297.2861 3584.9614 1291.7299 3580.4022 1283.6462 3576.6327 c
1279.022 3574.4764 1274.9965 3572.9278 1271.5691 3571.9851 c
1268.1404 3571.0418 1265.1997 3570.4993 1262.7458 3570.357 C
1257.5875 3581.4189 L
1259.6674 3581.1797 1262.6352 3581.4418 1266.4928 3582.2048 c
1270.3361 3582.995 1273.9314 3584.1713 1277.2792 3585.7324 c
1281.9871 3587.9278 1284.9299 3590.0592 1286.1067 3592.1279 c
1287.3121 3594.2083 1287.2402 3596.6951 1285.8905 3599.5895 c
1285.0176 3601.4615 1283.6056 3602.8232 1281.6547 3603.6746 C
1279.7038 3604.526 1275.18 3604.7473 1268.0846 3604.3394 c
1262.4205 3604.0452 1257.5884 3604.7784 1253.5904 3606.5415 c
1249.5787 3608.3306 1246.3698 3611.8068 1243.9624 3616.9695 c
1241.6609 3621.9048 1241.8147 3627.0526 1244.4263 3632.4143 c
1247.0645 3637.7883 1252.0997 3642.2081 1259.5319 3645.6739 c
1263.1337 3647.3534 1266.5061 3648.5634 1269.649 3649.3038 c
1272.8069 3650.0852 1275.0726 3650.5201 1276.4473 3650.6092 C
1281.0105 3640.8237 L
1278.2929 3640.2816 1275.6236 3639.6746 1273.001 3639.0053 c
1270.3778 3638.334 1267.7063 3637.3635 1264.9828 3636.0951 c
1261.1244 3634.2959 1258.6234 3632.4044 1257.477 3630.4195 C
1256.3307 3628.4347 1256.1742 3626.5488 1257.0074 3624.7619 c
1258.0658 3622.4923 1259.5044 3621.0734 1261.3226 3620.5066 C
1263.1415 3619.9384 1267.6859 3619.9678 1274.9553 3620.5962 C
1281.7205 3621.195 1287.076 3620.4469 1291.0235 3618.351 c
1294.9859 3616.2962 1298.0054 3613.0424 1300.0817 3608.5897 c
f
1 XR
1361.3728 3667.2733 m
1346.4997 3663.2881 L
1362.1004 3605.0657 L
1346.6833 3600.9347 L
1331.0826 3659.1571 L
1315.8468 3655.0747 L
1313.1131 3665.2772 L
1358.639 3677.4758 L
1361.3728 3667.2733 L
f
1 XR
1423.5043 3613.4983 m
1407.5824 3612.3849 L
1402.6404 3683.0505 L
1418.5624 3684.164 L
1423.5043 3613.4983 L
f
1 XR
1503.9966 3670.6202 m
1488.6365 3671.6944 L
1484.4314 3611.5653 L
1468.5094 3612.6788 L
1472.7145 3672.8079 L
1456.9798 3673.9082 L
1457.7166 3684.4449 L
1504.7334 3681.1568 L
1503.9966 3670.6202 L
f
1 XR
1581.4958 3609.9689 m
1579.5468 3603.5942 1576.0574 3599.1953 1571.0307 3596.7728 c
1566.0116 3594.3802 1559.3866 3594.4422 1551.1573 3596.9582 c
1542.3275 3599.6577 1536.5737 3603.5276 1533.8934 3608.5688 c
1531.213 3613.6099 1531.0347 3619.9309 1533.359 3627.5332 C
1547.2901 3673.0992 L
1562.5535 3668.4326 L
1548.0597 3621.026 L
1546.9342 3617.3448 1546.9097 3614.3242 1547.9896 3611.966 c
1549.1063 3609.6273 1551.716 3607.8323 1555.8167 3606.5786 c
1559.6171 3605.4167 1562.6812 3605.3788 1565.0114 3606.4673 C
1567.3691 3607.5459 1569.1976 3610.2099 1570.4986 3614.4602 C
1584.91 3661.5974 L
1596.223 3658.1387 L
1581.4958 3609.9689 L
f
1 XR
1670.4727 3614.4156 m
1656.7533 3621.406 L
1629.3882 3567.6995 L
1615.1669 3574.9458 L
1642.532 3628.6522 L
1628.4779 3635.8132 L
1633.2732 3645.2243 L
1675.268 3623.8267 L
1670.4727 3614.4156 L
f
1 XR
1680.9627 3535.0902 m
1668.05 3544.4718 L
1709.6877 3601.7817 L
1722.6005 3592.4001 L
1680.9627 3535.0902 L
f
1 XR
*u
1 XR
1771.7402 3498.1629 m
1763.8399 3490.2626 1755.9272 3486.1133 1748.0061 3485.7149 C
1740.1048 3485.3384 1733.0697 3488.2388 1726.8945 3494.4119 c
1720.7867 3500.5197 1717.9091 3507.5341 1718.2639 3515.4572 c
1718.6394 3523.4011 1722.7223 3531.2682 1730.5126 3539.0585 C
1733.3674 3541.9133 L
1740.6255 3549.1714 1748.3038 3553.3312 1756.4044 3554.3944 c
1764.5256 3555.4349 1771.9944 3552.547 1778.8107 3545.7307 c
1785.4714 3539.0699 1788.1819 3531.7122 1786.9433 3523.6563 c
1785.7255 3515.5797 1781.5533 3507.9781 1774.429 3500.8516 C
1771.7402 3498.1629 L
f
1 XR
1761.0516 3510.1793 m
1762.4126 3511.5403 L
1768.5868 3517.7144 1772.6365 3522.8264 1774.5618 3526.8762 C
1776.487 3530.9259 1775.4466 3534.9538 1771.4415 3538.959 c
1767.7455 3542.655 1763.9613 3543.7836 1760.089 3542.3448 C
1756.2384 3540.8842 1750.8941 3536.7349 1744.056 3529.8969 C
1742.8278 3528.6686 L
1735.9451 3521.786 1731.7616 3516.5194 1730.2803 3512.8681 c
1728.7969 3509.2167 1730.0251 3505.4221 1733.9649 3501.4823 c
1737.1951 3498.2521 1740.9129 3497.2998 1745.1182 3498.6276 c
1749.3443 3499.9326 1754.6554 3503.7832 1761.0516 3510.1793 C
f
*U
1 XR
1798.9816 3410.2901 m
1794.953 3415.835 L
1810.1242 3470.6671 L
1774.1203 3444.509 L
1767.4428 3453.6998 L
1824.7527 3495.3376 L
1829.7746 3488.4255 L
1815.6989 3436.4782 L
1849.614 3461.1188 L
1856.2915 3451.9279 L
1798.9816 3410.2901 L
f
U
0 XR
u
1 XR
0.9804 0.7176 0 (PANTONE 123 CVC) 0 1 XX
1.6333 w
0 j
3.863708 M
[] 0 d
1754.0595 2883.7668 m
S
1 XR
0.9804 0.7176 0 (PANTONE 123 CVC) 0 1 Xx
0 O
3.863693 M
[] 0 d
1673.0981 2921.0491 m
1673.0981 2921.0491 1677.0041 2925.3433 1678.2713 2922.2096 c
1679.5386 2919.0755 1679.8074 2916.4031 1678.7236 2915.2329 c
1677.6399 2914.0629 1677.7686 2913.3216 1676.234 2911.357 c
1674.6997 2909.3926 1675.3804 2908.2692 1673.8994 2907.3244 c
1672.4184 2906.3793 1671.7381 2906.8058 1670.1067 2906.8914 C
1669.4423 2902.0182 L
1668.3803 2897.9453 L
1668.9929 2894.0277 L
1671.777 2887.7978 L
1669.6545 2892.4672 L
1672.626 2887.3733 L
1674.8764 2881.4389 1696.2638 2875.4759 1704.0133 2872.0091 c
1720.1439 2864.7927 1717.6217 2830.4919 1719.3197 2827.0961 c
1721.0178 2823.7 1727.8093 2778.2798 1727.8093 2770.6391 c
1727.8093 2762.9984 1719.3197 2721.8231 1718.4707 2713.3332 c
1718.0478 2709.1028 1716.9923 2698.9704 1715.9346 2688.7123 C
1715.7257 2686.6849 1712.8155 2689.35 1711.896 2687.5264 C
1710.6768 2685.1085 1710.8545 2678.1514 1711.1427 2675.8496 C
1710.6358 2670.8416 1709.2108 2666.9477 1708.9794 2664.4013 c
1708.1304 2655.0626 1699.5249 2654.1901 1699.5249 2654.1901 C
1699.5249 2654.1901 1699.2188 2622.2503 1697.521 2614.6096 c
1695.823 2606.9689 1694.6682 2605.5134 1697.215 2584.2889 c
1699.762 2563.0643 1693.8192 2536.7462 1693.8192 2536.7462 C
1693.8192 2536.7462 1685.0522 2498.0521 1683.3542 2492.1092 c
1681.6564 2486.1664 1684.4803 2480.7138 1685.3293 2476.4688 c
1686.1783 2472.2239 1686.1783 2465.4322 1686.1783 2465.4322 C
1611.531 2465.4322 l
1609.6327 2465.4322 1612.8421 2472.1467 1615.3514 2476.8933 c
1616.513 2479.091 1620.0208 2482.4118 1625.1148 2483.2608 c
1630.2085 2484.1098 1630.6328 2489.628 1633.6043 2496.4198 c
1636.5757 2503.2115 1635.3023 2517.6441 1632.7553 2526.5583 c
1630.2085 2535.4727 1626.8125 2557.1216 1626.8125 2564.7623 c
1626.8125 2572.403 1622.599 2589.8071 1618.3542 2601.693 c
1614.1093 2613.5786 1611.9868 2639.4723 1611.9868 2642.0193 c
1611.9868 2643.1303 1611.5022 2644.5644 1610.6033 2646.8149 c
1609.4416 2649.7234 1609.2547 2653.9957 1606.8617 2660.6968 c
1602.6168 2672.5823 1603.01 2687.0149 1602.5855 2699.3253 c
1602.161 2711.6353 1597.4917 2725.2189 1595.3407 2728.2292 C
1594.0285 2733.5469 L
1580.9366 2729.4638 L
1568.2796 2719.5525 L
1565.4925 2717.0336 1562.4531 2716.6137 1557.3356 2716.1568 c
1547.4268 2715.2721 1537.5181 2726.9001 1535.1938 2743.7071 c
1532.6248 2762.2849 1536.2949 2770.2467 1556.9686 2770.1835 C
1566.1555 2770.1606 L
1574.1393 2769.8946 L
1578.0023 2769.8946 L
1578.0023 2769.8946 1580.3202 2765.3715 1576.7145 2763.7751 c
1573.109 2762.1789 1572.0789 2761.9128 1572.0789 2761.9128 C
1576.6916 2756.6311 L
1576.6051 2756.6253 1579.1901 2758.3692 1586.8795 2762.5739 C
1589.7448 2769.2596 L
1589.9569 2773.5044 1590.2753 2774.4595 1589.4263 2779.1288 c
1588.5773 2783.7982 1586.9298 2810.6414 1586.9298 2817.0089 c
1586.9298 2823.3761 1587.1142 2830.9085 1587.763 2838.2588 c
1588.3533 2844.9445 1588.2627 2859.8456 1591.5131 2866.1756 c
1595.5457 2874.0286 1617.3465 2877.4256 1617.3465 2877.4256 C
1617.3465 2877.4256 1626.7813 2878.4591 1628.0547 2881.0061 c
1628.5292 2881.9551 1630.8994 2886.0271 1631.9077 2887.6175 C
1625.8399 2889.7714 1623.8489 2897.2305 1622.9608 2899.0468 c
1622.0374 2900.9355 1620.414 2909.659 1620.2017 2910.508 c
1619.8886 2911.7609 1617.9872 2919.6462 1616.924 2922.7694 c
1615.8606 2925.8926 1616.7645 2931.5832 1616.7645 2931.5832 C
1609.8593 2932.3419 L
1601.5086 2932.984 L
1601.5086 2932.984 1596.8394 2933.6377 1595.6373 2934.1096 c
1594.4349 2934.5817 1590.3884 2935.4072 1590.3884 2935.4072 C
1590.3884 2935.4072 1583.7546 2941.0892 1590.3332 2945.6523 c
1596.9117 2950.2153 1604.6459 2954.4458 1605.9124 2955.1975 c
1607.1788 2955.949 1607.6855 2957.1996 1607.6855 2957.1996 C
1607.5672 2958.8419 L
1606.0531 2961.1707 1604.582 2964.3154 1602.6916 2971.1627 c
1600.801 2978.0102 1618.7707 2980.8674 1618.7707 2980.8674 C
1623.9684 2981.3133 1641.3975 2979.006 1639.6041 2979.4023 c
1643.2429 2978.5981 1645.6231 2978.7283 1652.5784 2978.7728 c
1659.5333 2978.8172 1668.6037 2976.2971 1673.6592 2975.214 c
1678.7149 2974.1311 1683.87 2969.4508 1686.4792 2964.6107 c
1689.0885 2959.7706 1699.6513 2953.6481 1702.7647 2950.6221 c
1707.4758 2946.043 1713.0743 2936.4479 1715.2293 2932.9438 c
1718.9981 2926.8161 1714.9331 2928.2788 1713.667 2927.5273 c
1707.7774 2924.0318 1674.9803 2931.4276 1677.8395 2931.0722 c
1680.187 2930.7803 1679.6361 2931.6166 1677.0999 2932.9847 C
1677.083 2930.6712 L
1675.1729 2923.4548 L
1673.0981 2921.0491 L
b
0 XR
u
1 XR
0 0.1451 0.4667 (PANTONE 287 CVC) 0 1 XX
3.863708 M
[] 0 d
1629.7527 2884.402 m
S
1 XR
[] 0 d
1580.9366 2995.6178 m
S
1 XR
4.0833 w
3.863693 M
[] 0 d
1638.2424 2829.2184 m
1639.2833 2846.6066 1640.7117 2860.9374 1643.3362 2872.0919 c
1644.1852 2875.6999 1643.3362 2877.3979 1643.3362 2877.3979 C
1638.8164 2877.5062 1635.774 2877.8489 1631.0965 2883.2589 C
S
1 XR
4.8999 w
[] 0 d
1609.6041 2639.6097 m
1610.6033 2646.8149 L
1610.6033 2646.8149 1612.8358 2650.9336 1611.9868 2658.9988 c
1611.1377 2667.0641 1611.9868 2689.5619 1614.1093 2701.0231 c
1616.1188 2711.8754 1633.1485 2745.5942 1634.8465 2754.5085 c
1636.3111 2762.1975 1636.5444 2788.043 1636.5444 2790.1656 c
1636.5444 2790.8694 1635.7032 2793.3243 1636.1199 2802.9003 C
S
1 XR
1.6335 w
[] 0 d
1622.9005 2908.1701 m
S
1 XR
1595.3407 2728.2292 m
1597.4917 2725.2189 1602.161 2711.6353 1602.5855 2699.3253 c
1603.01 2687.0149 1600.9501 2672.5823 1605.195 2660.6968 c
1607.588 2653.9957 1609.4416 2649.7234 1610.6033 2646.8149 c
1611.5022 2644.5644 1615.3201 2643.1303 1615.3201 2642.0193 c
1615.3201 2639.4723 1617.4426 2613.5786 1621.6875 2601.693 c
1625.9323 2589.8071 1628.4792 2572.403 1628.4792 2564.7623 c
1628.4792 2557.1216 1631.875 2535.4727 1634.422 2526.5583 c
1636.9689 2517.6441 1638.2424 2503.2115 1635.271 2496.4198 c
1632.2995 2489.628 1631.4662 2485.4327 1626.7813 2483.2608 c
1623.1798 2481.5912 1621.425 2480.8722 1618.5965 2477.4243 c
1615.1912 2473.2736 1611.2994 2465.4322 1613.1978 2465.4322 c
1684.5116 2465.4322 L
1684.5116 2465.4322 1684.5116 2472.2239 1683.6628 2476.4688 c
1682.8138 2480.7138 1677.7199 2486.6566 1679.4177 2492.5995 c
1681.1158 2498.5422 1692.1525 2536.7462 1692.1525 2536.7462 C
1692.1525 2536.7462 1698.0953 2563.0643 1695.5483 2584.2889 c
1693.0015 2605.5134 1692.1525 2605.5134 1693.8505 2613.1541 c
1695.5483 2620.7949 1697.3927 2651.2662 1697.3927 2651.2662 C
1697.3927 2651.2662 1710.7104 2654.8441 1711.5594 2664.1828 c
1712.4084 2673.5215 1717.6217 2704.8435 1718.4707 2713.3332 c
1719.3197 2721.8231 1727.8093 2762.9984 1727.8093 2770.6391 c
1727.8093 2778.2798 1721.0178 2823.7 1719.3197 2827.0961 c
1717.6217 2830.4919 1719.3197 2856.8103 1703.1892 2864.0264 c
1695.4394 2867.4935 1674.8764 2881.4389 1672.626 2887.3733 C
1669.6545 2892.4672 L
N
1 XR
5.4207 w
1 j
[] 0 d
1631.9077 2887.6175 m
1628.0548 2881.009 l
1628.0548 2881.009 1595.5457 2874.0286 1591.5131 2866.1756 c
1588.2627 2859.8456 1586.9298 2823.3761 1586.9298 2817.0089 c
1586.9298 2810.6414 1588.5773 2783.7982 1589.4263 2779.1288 c
1590.2753 2774.4595 1589.9569 2773.5044 1589.7448 2769.2596 C
S
1 XR
1.6333 w
0 j
3.863708 M
[] 0 d
1628.4792 2899.6835 m
S
1 XR
4.8999 w
3.863693 M
[] 0 d
1650.5526 2781.2513 m
1650.9771 2777.8553 1650.1019 2756.106 1659.0423 2742.1983 c
1662.8627 2736.2555 1679.5615 2703.886 1683.2383 2699.7496 c
1685.4384 2697.2742 1691.0953 2696.3124 1692.521 2692.9431 C
1699.8965 2675.5128 1692.1044 2658.3597 1702.521 2655.8597 C
1705.4377 2645.8597 L
S
1 XR
4.0833 w
[] 0 d
1673.7709 2887.9437 m
1671.9987 2885.4907 1660.1359 2878.3604 1653.1458 2878.3604 c
1650.599 2878.3604 1652.1041 2873.1519 1650.9771 2866.9981 c
1649.79 2860.5161 1649.7036 2823.7 1650.5526 2819.0307 c
1650.8973 2817.1349 1650.2274 2816.1668 1650.1281 2810.1165 C
S
1 XR
4.8999 w
1 J
1 j
[] 0 d
1684.8467 2842.4254 m
1689.1811 2825.3981 L
1695.1238 2793.9859 L
1697.2463 2774.884 L
1697.6708 2757.9046 L
1697.2463 2743.4718 L
1695.5483 2733.2841 L
1693.426 2723.9454 L
1689.6056 2693.3824 L
1701.9157 2696.3538 1710.0143 2693.4685 1715.9239 2688.7129 C
S
1 XR
0 J
0 j
[] 0 d
1603.5964 2873.6756 m
1604.4297 2870.7589 L
1603.272 2877.1568 1623.8098 2786.345 1693.8505 2743.8963 c
1697.2469 2741.7725 L
S
1 XR
[] 0 d
1617.3465 2877.4256 m
1624.7026 2854.045 1646.7271 2795.6096 1697.0341 2765.1208 C
1697.6708 2760.8759 L
S
1 XR
[] 0 d
1627.9384 2738.3578 m
1640.8553 2735.6511 1649.1877 2735.6525 1660.8545 2738.7778 C
S
1 XR
[] 0 d
1648.1519 2672.2112 m
1650.6947 2654.572 1653.8357 2633.4997 1654.7975 2630.1336 c
1656.4955 2624.1908 1658.1933 2594.4766 1658.1933 2594.4766 C
1659.0423 2565.6113 L
1659.8913 2529.1053 L
1659.8913 2495.9953 L
1659.8913 2486.6566 L
1652.9196 2481.7799 1649.2587 2474.5008 1648.9091 2464.8202 C
S
0 XR
4.5172 w
1 j
[] 0 d
1578.322 2763.0388 m
1573.9891 2756.5238 1552.5958 2768.8921 1551.5125 2750.4329 c
1550.68 2736.2475 1553.4258 2720.2163 1567.1431 2718.4536 C
1577.2388 2725.1316 L
1579.9414 2727.8408 L
S
1 XR
1565.5955 2770.6033 m
1559.7122 2862.7532 1562.4473 2943.4845 1577.729 3004.6108 C
1536.5801 2944.868 1553.5043 2770.5387 1553.5043 2770.5387 C
1565.5955 2770.6033 L
f
1 XR
5.4207 w
[] 0 d
1589.8508 2770.6391 m
1586.8795 2762.5739 L
1579.1901 2758.3692 1576.8091 2758.146 1576.8956 2758.1517 C
S
1 XR
4.5172 w
[] 0 d
1575.8685 2760.143 m
1575.8685 2760.143 1583.413 2740.089 1577.2388 2725.1316 c
S
1 XR
3.4882 w
[] 0 d
1565.8018 2770.0788 m
1574.1393 2769.8946 L
1578.0023 2769.8946 L
1578.0023 2769.8946 1580.3202 2765.3715 1576.7145 2763.7751 c
1573.109 2762.1789 1570.6456 2762.2143 1570.6456 2762.2143 C
S
1 XR
0 j
[] 0 d
1568.2796 2719.5525 m
1565.4925 2717.0336 1562.4531 2716.6137 1557.3356 2716.1568 c
1547.4268 2715.2721 1537.5181 2726.9001 1535.1938 2743.7071 c
1532.6248 2762.2849 1535.1004 2770.0164 1553.5043 2770.5387 C
S
1 XR
[] 0 d
1571.4815 2762.385 m
1558.2699 2762.385 L
1558.2699 2762.385 1551.2437 2760.5155 1550.93 2754.8023 c
1550.4305 2745.7034 1550.265 2732.8386 1554.1795 2727.7835 c
1558.094 2723.7394 L
S
1 XR
4.0833 w
[] 0 d
1616.7917 2939.8189 m
1617.9375 2932.9438 L
1616.3095 2929.9942 L
1609.1677 2930.4648 L
1600.7992 2930.7419 L
1600.7992 2930.7419 1596.1071 2931.1912 1594.8859 2931.6102 c
1593.6646 2932.0292 1589.5867 2932.6771 1589.5867 2932.6771 C
1589.5867 2932.6771 1583.5317 2940.6924 1589.903 2945.5371 c
1596.2745 2950.3815 1602.8376 2953.795 1604.0698 2954.601 c
1605.3018 2955.4068 1605.9124 2955.1975 1605.9124 2955.1975 C
S
1 XR
1.6333 w
3.863708 M
[] 0 d
1616.7166 2938.3218 m
1616.7183 2930.551 L
S
1 XR
3.2666 w
3.863693 M
[] 0 d
1617.8448 2932.5367 m
1617.8448 2932.5367 1615.8606 2925.8926 1616.924 2922.7694 c
1617.9872 2919.6462 1619.8886 2911.7609 1620.2017 2910.508 c
1620.414 2909.659 1622.0374 2900.9355 1622.9608 2899.0468 c
1623.8844 2897.1578 1626.001 2889.1653 1632.6561 2887.3851 c
1639.311 2885.6048 1646.7382 2886.8515 1650.9773 2889.6968 c
S
1 XR
2.45 w
[] 0 d
1630.7257 2902.9335 m
1630.7257 2902.9335 1633.9641 2904.1141 1635.0646 2903.6473 c
1636.1647 2903.1807 1639.3149 2902.8112 1639.3149 2902.8112 C
1639.3149 2902.8112 1643.238 2903.5257 1644.5475 2903.1504 c
1645.857 2902.775 1647.9449 2902.7692 1648.5619 2902.8391 c
S
1 XR
[] 0 d
1633.573 2898.7283 m
1633.573 2898.7283 1641.3047 2897.22 1644.5457 2898.5838 c
S
1 XR
[] 0 d
1644.2893 2931.9061 m
1644.2893 2931.9061 1651.262 2934.7734 1657.3648 2930.2614 c
S
0 XR
1.9598 w
[] 0 d
1635.4206 2932.3315 m
1635.9577 2930.8719 1634.9173 2926.6319 1634.0108 2924.9412 c
1633.1043 2923.2507 1632.8418 2920.1969 1632.2626 2918.8979 c
1631.6832 2917.5993 1630.954 2915.388 1630.9919 2914.1591 c
1631.0295 2912.9301 1631.035 2913.0321 1632.9242 2912.0128 c
1634.8136 2910.9936 1636.1466 2911.8737 1637.6008 2912.3086 c
1639.0552 2912.7437 1640.3461 2913.1576 1641.6556 2912.7822 c
1642.9651 2912.4068 1644.8594 2913.4324 1644.827 2914.7631 c
1644.7944 2916.0941 1644.386 2918.0582 1643.5059 2918.82 c
1642.6255 2919.5818 1640.747 2920.805 1640.747 2920.805 C
S
0 XR
2.45 w
[] 0 d
1622.3906 2931.4807 m
1623.4448 2931.6349 1630.1372 2935.3871 1635.6954 2931.5202 C
S
0 XR
u
0 0.1451 0.4667 (PANTONE 287 CVC) 0 1 Xx
1.6333 w
3.863708 M
[] 0 d
1623.5764 2927.1519 m
1623.5874 2927.7796 1625.6435 2928.2525 1628.1691 2928.2082 c
1630.6946 2928.1639 1632.733 2927.6192 1632.7221 2926.9916 c
1632.7112 2926.3639 1630.655 2925.8911 1628.1294 2925.9353 c
1625.6039 2925.9796 1623.5655 2926.5243 1623.5764 2927.1519 c
b
2713.639 4878.6692 m
B
U
U
1 XR
3.2666 w
3.863693 M
[] 0 d
1631.9077 2887.6175 m
1632.1506 2887.5313 1632.3999 2887.4536 1632.6561 2887.3851 c
1639.311 2885.6048 1646.7382 2886.8515 1650.9773 2889.6968 C
S
1 XR
3.2651 w
[] 0 d
1615.5278 2980.8389 m
1615.5278 2980.8389 1598.1284 2975.6822 1600.3153 2968.9257 c
1602.5022 2962.1689 1604.109 2959.0923 1605.7226 2956.8323 c
1607.3362 2954.5725 1610.5261 2945.7655 1611.5255 2943.3067 c
1612.525 2940.8481 1611.9192 2936.3727 1615.9741 2938.3679 c
1639.0007 2949.6993 1688.5653 2930.09 1677.9035 2930.9451 c
1675.0319 2931.1754 1709.9896 2923.9503 1715.7193 2927.6983 c
1716.9513 2928.5041 1719.4156 2930.1161 1715.384 2936.0721 c
1713.0789 2939.4777 1706.0678 2948.4068 1701.1625 2952.7748 c
1697.9209 2955.6615 1688.5112 2961.8217 1685.694 2966.542 c
1682.8768 2971.2625 1676.1165 2975.2064 1671.0201 2976.0675 c
1665.9233 2976.9287 1656.7541 2979.0501 1649.8093 2978.7025 c
1642.8646 2978.3546 1640.8285 2978.9849 1637.159 2979.6293 c
1638.9673 2979.3118 1620.6996 2981.5109 1615.5278 2980.8389 C
s
1 XR
4.9001 w
[] 0 d
1657.521 2614.1907 m
1657.521 2614.1907 1675.8542 2602.943 1697.521 2614.6096 c
1717.7074 2625.4791 1701.2713 2616.6941 1701.2713 2616.6941 C
S
1 XR
[] 0 d
1614.1862 2611.6938 m
1614.1862 2611.6938 1634.4759 2602.0993 1655.3092 2612.9326 c
S
0 XR
u
1.6333 w
3.863708 M
[] 0 d
1645.6331 2926.8942 m
1645.7021 2927.5505 1647.8986 2927.8572 1650.5392 2927.5794 c
1653.1799 2927.3015 1655.2646 2926.5442 1655.1956 2925.888 c
1655.1266 2925.2318 1652.93 2924.925 1650.2894 2925.2029 c
1647.6488 2925.4808 1645.5641 2926.238 1645.6331 2926.8942 c
b
2750.7575 4877.536 m
B
U
1 XR
4.8999 w
3.863693 M
[] 0 d
1623.7718 2726.6911 m
1636.0636 2722.1095 1655.0218 2723.359 1666.896 2727.1095 C
S
U
1 XR
0.9804 0.7176 0 (PANTONE 123 CVC) 0 1 XX
1.6333 w
3.863708 M
[] 0 d
33.3492 4293.3649 m
S
1 XR
0.9804 0.7176 0 (PANTONE 123 CVC) 0 1 Xx
0 0.1451 0.4667 (PANTONE 287 CVC) 0 1 XX
0.6805 w
3.863693 M
[] 0 d
1779.8296 2485.8235 m
1948.3732 2485.8235 L
1948.3732 2463.0799 L
1779.8296 2463.0799 L
1779.8296 2485.8235 L
b
U
LB
%AI5_EndLayer--
%%PageTrailer
gsave annotatepage grestore showpage
%%Trailer
Adobe_IllustratorA_AI5 /terminate get exec
Adobe_screens_AI5 /terminate get exec
Adobe_ColorImage_AI6 /terminate get exec
Adobe_typography_AI5 /terminate get exec
Adobe_cshow /terminate get exec
Adobe_level2_AI5 /terminate get exec
%%EOF
